ISO-10303-21;
HEADER;
/* Generated by software containing ST-Developer
 * from STEP Tools, Inc. (www.steptools.com) 
 */

FILE_DESCRIPTION(
/* description */ (''),
/* implementation_level */ '2;1');

FILE_NAME(
/* name */ 'D:/Local Projects/widowXL/cad/ForkliftRight.step',
/* time_stamp */ '2017-12-07T15:22:54-06:00',
/* author */ (''),
/* organization */ (''),
/* preprocessor_version */ 'ST-DEVELOPER v16.13',
/* originating_system */ 'Autodesk Translation Framework v6.5.0.72',
/* authorisation */ '');

FILE_SCHEMA (('AUTOMOTIVE_DESIGN { 1 0 10303 214 3 1 1 }'));
ENDSEC;

DATA;
#10=MECHANICAL_DESIGN_GEOMETRIC_PRESENTATION_REPRESENTATION('',(#13),#759);
#11=SHAPE_REPRESENTATION_RELATIONSHIP('SRR','None',#766,#12);
#12=ADVANCED_BREP_SHAPE_REPRESENTATION('',(#14),#758);
#13=STYLED_ITEM('',(#776),#14);
#14=MANIFOLD_SOLID_BREP('Body1',#465);
#15=FACE_BOUND('',#64,.T.);
#16=FACE_BOUND('',#65,.T.);
#17=FACE_BOUND('',#70,.T.);
#18=FACE_BOUND('',#71,.T.);
#19=ELLIPSE('',#484,3.00166620396073,3.);
#20=CYLINDRICAL_SURFACE('',#483,3.);
#21=CYLINDRICAL_SURFACE('',#504,1.);
#22=CYLINDRICAL_SURFACE('',#505,1.);
#23=CIRCLE('',#481,3.00000000000096);
#24=CIRCLE('',#491,3.);
#25=CIRCLE('',#494,1.);
#26=CIRCLE('',#495,1.);
#27=CIRCLE('',#500,1.);
#28=CIRCLE('',#501,1.);
#29=FACE_OUTER_BOUND('',#52,.T.);
#30=FACE_OUTER_BOUND('',#53,.T.);
#31=FACE_OUTER_BOUND('',#54,.T.);
#32=FACE_OUTER_BOUND('',#55,.T.);
#33=FACE_OUTER_BOUND('',#56,.T.);
#34=FACE_OUTER_BOUND('',#57,.T.);
#35=FACE_OUTER_BOUND('',#58,.T.);
#36=FACE_OUTER_BOUND('',#59,.T.);
#37=FACE_OUTER_BOUND('',#60,.T.);
#38=FACE_OUTER_BOUND('',#61,.T.);
#39=FACE_OUTER_BOUND('',#62,.T.);
#40=FACE_OUTER_BOUND('',#63,.T.);
#41=FACE_OUTER_BOUND('',#66,.T.);
#42=FACE_OUTER_BOUND('',#67,.T.);
#43=FACE_OUTER_BOUND('',#68,.T.);
#44=FACE_OUTER_BOUND('',#69,.T.);
#45=FACE_OUTER_BOUND('',#72,.T.);
#46=FACE_OUTER_BOUND('',#73,.T.);
#47=FACE_OUTER_BOUND('',#74,.T.);
#48=FACE_OUTER_BOUND('',#75,.T.);
#49=FACE_OUTER_BOUND('',#76,.T.);
#50=FACE_OUTER_BOUND('',#77,.T.);
#51=FACE_OUTER_BOUND('',#78,.T.);
#52=EDGE_LOOP('',(#296,#297,#298,#299));
#53=EDGE_LOOP('',(#300,#301,#302,#303,#304));
#54=EDGE_LOOP('',(#305,#306,#307,#308));
#55=EDGE_LOOP('',(#309,#310,#311,#312));
#56=EDGE_LOOP('',(#313,#314,#315,#316));
#57=EDGE_LOOP('',(#317,#318,#319,#320,#321));
#58=EDGE_LOOP('',(#322,#323,#324,#325,#326,#327,#328));
#59=EDGE_LOOP('',(#329,#330,#331,#332));
#60=EDGE_LOOP('',(#333,#334,#335,#336,#337,#338,#339,#340));
#61=EDGE_LOOP('',(#341,#342,#343,#344,#345,#346,#347,#348));
#62=EDGE_LOOP('',(#349,#350,#351,#352));
#63=EDGE_LOOP('',(#353,#354,#355,#356,#357,#358,#359,#360,#361,#362,#363,
#364,#365));
#64=EDGE_LOOP('',(#366));
#65=EDGE_LOOP('',(#367));
#66=EDGE_LOOP('',(#368,#369,#370,#371,#372,#373,#374));
#67=EDGE_LOOP('',(#375,#376,#377,#378));
#68=EDGE_LOOP('',(#379,#380,#381,#382));
#69=EDGE_LOOP('',(#383,#384,#385,#386,#387,#388,#389,#390));
#70=EDGE_LOOP('',(#391));
#71=EDGE_LOOP('',(#392));
#72=EDGE_LOOP('',(#393,#394,#395,#396,#397));
#73=EDGE_LOOP('',(#398,#399,#400,#401));
#74=EDGE_LOOP('',(#402,#403,#404,#405));
#75=EDGE_LOOP('',(#406,#407,#408,#409));
#76=EDGE_LOOP('',(#410,#411,#412,#413));
#77=EDGE_LOOP('',(#414,#415,#416,#417));
#78=EDGE_LOOP('',(#418,#419,#420,#421));
#79=LINE('',#631,#135);
#80=LINE('',#633,#136);
#81=LINE('',#635,#137);
#82=LINE('',#636,#138);
#83=LINE('',#639,#139);
#84=LINE('',#641,#140);
#85=LINE('',#643,#141);
#86=LINE('',#647,#142);
#87=LINE('',#649,#143);
#88=LINE('',#650,#144);
#89=LINE('',#653,#145);
#90=LINE('',#657,#146);
#91=LINE('',#658,#147);
#92=LINE('',#661,#148);
#93=LINE('',#663,#149);
#94=LINE('',#664,#150);
#95=LINE('',#667,#151);
#96=LINE('',#669,#152);
#97=LINE('',#670,#153);
#98=LINE('',#673,#154);
#99=LINE('',#674,#155);
#100=LINE('',#677,#156);
#101=LINE('',#679,#157);
#102=LINE('',#681,#158);
#103=LINE('',#683,#159);
#104=LINE('',#685,#160);
#105=LINE('',#687,#161);
#106=LINE('',#688,#162);
#107=LINE('',#690,#163);
#108=LINE('',#692,#164);
#109=LINE('',#694,#165);
#110=LINE('',#696,#166);
#111=LINE('',#699,#167);
#112=LINE('',#703,#168);
#113=LINE('',#705,#169);
#114=LINE('',#707,#170);
#115=LINE('',#709,#171);
#116=LINE('',#711,#172);
#117=LINE('',#712,#173);
#118=LINE('',#719,#174);
#119=LINE('',#721,#175);
#120=LINE('',#723,#176);
#121=LINE('',#724,#177);
#122=LINE('',#727,#178);
#123=LINE('',#728,#179);
#124=LINE('',#730,#180);
#125=LINE('',#731,#181);
#126=LINE('',#734,#182);
#127=LINE('',#736,#183);
#128=LINE('',#738,#184);
#129=LINE('',#739,#185);
#130=LINE('',#746,#186);
#131=LINE('',#748,#187);
#132=LINE('',#750,#188);
#133=LINE('',#752,#189);
#134=LINE('',#754,#190);
#135=VECTOR('',#513,10.);
#136=VECTOR('',#514,10.);
#137=VECTOR('',#515,10.);
#138=VECTOR('',#516,10.);
#139=VECTOR('',#519,10.);
#140=VECTOR('',#520,10.);
#141=VECTOR('',#521,10.);
#142=VECTOR('',#526,10.);
#143=VECTOR('',#527,10.);
#144=VECTOR('',#528,10.);
#145=VECTOR('',#531,10.);
#146=VECTOR('',#536,10.);
#147=VECTOR('',#537,10.);
#148=VECTOR('',#540,10.);
#149=VECTOR('',#541,10.);
#150=VECTOR('',#542,10.);
#151=VECTOR('',#545,10.);
#152=VECTOR('',#546,10.);
#153=VECTOR('',#547,10.);
#154=VECTOR('',#550,10.);
#155=VECTOR('',#551,10.);
#156=VECTOR('',#554,10.);
#157=VECTOR('',#555,10.);
#158=VECTOR('',#556,10.);
#159=VECTOR('',#557,10.);
#160=VECTOR('',#558,10.);
#161=VECTOR('',#559,10.);
#162=VECTOR('',#560,10.);
#163=VECTOR('',#563,10.);
#164=VECTOR('',#564,10.);
#165=VECTOR('',#565,10.);
#166=VECTOR('',#566,10.);
#167=VECTOR('',#569,10.);
#168=VECTOR('',#574,10.);
#169=VECTOR('',#575,10.);
#170=VECTOR('',#576,10.);
#171=VECTOR('',#577,10.);
#172=VECTOR('',#578,10.);
#173=VECTOR('',#579,10.);
#174=VECTOR('',#586,10.);
#175=VECTOR('',#587,10.);
#176=VECTOR('',#588,10.);
#177=VECTOR('',#589,10.);
#178=VECTOR('',#592,10.);
#179=VECTOR('',#593,10.);
#180=VECTOR('',#596,10.);
#181=VECTOR('',#597,10.);
#182=VECTOR('',#600,10.);
#183=VECTOR('',#601,10.);
#184=VECTOR('',#602,10.);
#185=VECTOR('',#603,10.);
#186=VECTOR('',#612,10.);
#187=VECTOR('',#615,1.);
#188=VECTOR('',#618,1.);
#189=VECTOR('',#621,10.);
#190=VECTOR('',#624,10.);
#191=VERTEX_POINT('',#629);
#192=VERTEX_POINT('',#630);
#193=VERTEX_POINT('',#632);
#194=VERTEX_POINT('',#634);
#195=VERTEX_POINT('',#638);
#196=VERTEX_POINT('',#640);
#197=VERTEX_POINT('',#642);
#198=VERTEX_POINT('',#646);
#199=VERTEX_POINT('',#648);
#200=VERTEX_POINT('',#652);
#201=VERTEX_POINT('',#656);
#202=VERTEX_POINT('',#660);
#203=VERTEX_POINT('',#662);
#204=VERTEX_POINT('',#666);
#205=VERTEX_POINT('',#668);
#206=VERTEX_POINT('',#672);
#207=VERTEX_POINT('',#676);
#208=VERTEX_POINT('',#678);
#209=VERTEX_POINT('',#680);
#210=VERTEX_POINT('',#682);
#211=VERTEX_POINT('',#684);
#212=VERTEX_POINT('',#686);
#213=VERTEX_POINT('',#691);
#214=VERTEX_POINT('',#693);
#215=VERTEX_POINT('',#695);
#216=VERTEX_POINT('',#697);
#217=VERTEX_POINT('',#702);
#218=VERTEX_POINT('',#704);
#219=VERTEX_POINT('',#706);
#220=VERTEX_POINT('',#708);
#221=VERTEX_POINT('',#710);
#222=VERTEX_POINT('',#713);
#223=VERTEX_POINT('',#715);
#224=VERTEX_POINT('',#718);
#225=VERTEX_POINT('',#720);
#226=VERTEX_POINT('',#722);
#227=VERTEX_POINT('',#726);
#228=VERTEX_POINT('',#733);
#229=VERTEX_POINT('',#735);
#230=VERTEX_POINT('',#737);
#231=VERTEX_POINT('',#740);
#232=VERTEX_POINT('',#742);
#233=EDGE_CURVE('',#191,#192,#79,.T.);
#234=EDGE_CURVE('',#193,#191,#80,.T.);
#235=EDGE_CURVE('',#194,#193,#81,.T.);
#236=EDGE_CURVE('',#192,#194,#82,.T.);
#237=EDGE_CURVE('',#194,#195,#83,.T.);
#238=EDGE_CURVE('',#196,#193,#84,.T.);
#239=EDGE_CURVE('',#197,#196,#85,.T.);
#240=EDGE_CURVE('',#195,#197,#23,.T.);
#241=EDGE_CURVE('',#198,#195,#86,.T.);
#242=EDGE_CURVE('',#199,#198,#87,.T.);
#243=EDGE_CURVE('',#194,#199,#88,.T.);
#244=EDGE_CURVE('',#197,#200,#89,.T.);
#245=EDGE_CURVE('',#200,#198,#19,.T.);
#246=EDGE_CURVE('',#196,#201,#90,.T.);
#247=EDGE_CURVE('',#201,#200,#91,.T.);
#248=EDGE_CURVE('',#199,#202,#92,.T.);
#249=EDGE_CURVE('',#202,#203,#93,.T.);
#250=EDGE_CURVE('',#203,#192,#94,.T.);
#251=EDGE_CURVE('',#204,#201,#95,.T.);
#252=EDGE_CURVE('',#204,#205,#96,.T.);
#253=EDGE_CURVE('',#205,#202,#97,.T.);
#254=EDGE_CURVE('',#206,#193,#98,.T.);
#255=EDGE_CURVE('',#201,#206,#99,.T.);
#256=EDGE_CURVE('',#207,#204,#100,.T.);
#257=EDGE_CURVE('',#208,#207,#101,.T.);
#258=EDGE_CURVE('',#209,#208,#102,.T.);
#259=EDGE_CURVE('',#210,#209,#103,.T.);
#260=EDGE_CURVE('',#211,#210,#104,.T.);
#261=EDGE_CURVE('',#211,#212,#105,.T.);
#262=EDGE_CURVE('',#205,#212,#106,.T.);
#263=EDGE_CURVE('',#212,#203,#107,.T.);
#264=EDGE_CURVE('',#213,#211,#108,.T.);
#265=EDGE_CURVE('',#214,#213,#109,.T.);
#266=EDGE_CURVE('',#214,#215,#110,.F.);
#267=EDGE_CURVE('',#216,#215,#24,.T.);
#268=EDGE_CURVE('',#216,#192,#111,.T.);
#269=EDGE_CURVE('',#210,#217,#112,.T.);
#270=EDGE_CURVE('',#217,#218,#113,.T.);
#271=EDGE_CURVE('',#218,#219,#114,.T.);
#272=EDGE_CURVE('',#219,#220,#115,.T.);
#273=EDGE_CURVE('',#220,#221,#116,.T.);
#274=EDGE_CURVE('',#221,#191,#117,.T.);
#275=EDGE_CURVE('',#222,#222,#25,.T.);
#276=EDGE_CURVE('',#223,#223,#26,.T.);
#277=EDGE_CURVE('',#224,#221,#118,.T.);
#278=EDGE_CURVE('',#225,#224,#119,.T.);
#279=EDGE_CURVE('',#226,#225,#120,.T.);
#280=EDGE_CURVE('',#206,#226,#121,.T.);
#281=EDGE_CURVE('',#227,#209,#122,.T.);
#282=EDGE_CURVE('',#217,#227,#123,.T.);
#283=EDGE_CURVE('',#226,#207,#124,.T.);
#284=EDGE_CURVE('',#208,#225,#125,.T.);
#285=EDGE_CURVE('',#224,#228,#126,.T.);
#286=EDGE_CURVE('',#228,#229,#127,.T.);
#287=EDGE_CURVE('',#229,#230,#128,.T.);
#288=EDGE_CURVE('',#230,#227,#129,.T.);
#289=EDGE_CURVE('',#231,#231,#27,.T.);
#290=EDGE_CURVE('',#232,#232,#28,.T.);
#291=EDGE_CURVE('',#220,#228,#130,.T.);
#292=EDGE_CURVE('',#222,#232,#131,.T.);
#293=EDGE_CURVE('',#223,#231,#132,.T.);
#294=EDGE_CURVE('',#218,#230,#133,.T.);
#295=EDGE_CURVE('',#219,#229,#134,.T.);
#296=ORIENTED_EDGE('',*,*,#233,.F.);
#297=ORIENTED_EDGE('',*,*,#234,.F.);
#298=ORIENTED_EDGE('',*,*,#235,.F.);
#299=ORIENTED_EDGE('',*,*,#236,.F.);
#300=ORIENTED_EDGE('',*,*,#237,.F.);
#301=ORIENTED_EDGE('',*,*,#235,.T.);
#302=ORIENTED_EDGE('',*,*,#238,.F.);
#303=ORIENTED_EDGE('',*,*,#239,.F.);
#304=ORIENTED_EDGE('',*,*,#240,.F.);
#305=ORIENTED_EDGE('',*,*,#237,.T.);
#306=ORIENTED_EDGE('',*,*,#241,.F.);
#307=ORIENTED_EDGE('',*,*,#242,.F.);
#308=ORIENTED_EDGE('',*,*,#243,.F.);
#309=ORIENTED_EDGE('',*,*,#240,.T.);
#310=ORIENTED_EDGE('',*,*,#244,.T.);
#311=ORIENTED_EDGE('',*,*,#245,.T.);
#312=ORIENTED_EDGE('',*,*,#241,.T.);
#313=ORIENTED_EDGE('',*,*,#239,.T.);
#314=ORIENTED_EDGE('',*,*,#246,.T.);
#315=ORIENTED_EDGE('',*,*,#247,.T.);
#316=ORIENTED_EDGE('',*,*,#244,.F.);
#317=ORIENTED_EDGE('',*,*,#248,.T.);
#318=ORIENTED_EDGE('',*,*,#249,.T.);
#319=ORIENTED_EDGE('',*,*,#250,.T.);
#320=ORIENTED_EDGE('',*,*,#236,.T.);
#321=ORIENTED_EDGE('',*,*,#243,.T.);
#322=ORIENTED_EDGE('',*,*,#248,.F.);
#323=ORIENTED_EDGE('',*,*,#242,.T.);
#324=ORIENTED_EDGE('',*,*,#245,.F.);
#325=ORIENTED_EDGE('',*,*,#247,.F.);
#326=ORIENTED_EDGE('',*,*,#251,.F.);
#327=ORIENTED_EDGE('',*,*,#252,.T.);
#328=ORIENTED_EDGE('',*,*,#253,.T.);
#329=ORIENTED_EDGE('',*,*,#238,.T.);
#330=ORIENTED_EDGE('',*,*,#254,.F.);
#331=ORIENTED_EDGE('',*,*,#255,.F.);
#332=ORIENTED_EDGE('',*,*,#246,.F.);
#333=ORIENTED_EDGE('',*,*,#252,.F.);
#334=ORIENTED_EDGE('',*,*,#256,.F.);
#335=ORIENTED_EDGE('',*,*,#257,.F.);
#336=ORIENTED_EDGE('',*,*,#258,.F.);
#337=ORIENTED_EDGE('',*,*,#259,.F.);
#338=ORIENTED_EDGE('',*,*,#260,.F.);
#339=ORIENTED_EDGE('',*,*,#261,.T.);
#340=ORIENTED_EDGE('',*,*,#262,.F.);
#341=ORIENTED_EDGE('',*,*,#250,.F.);
#342=ORIENTED_EDGE('',*,*,#263,.F.);
#343=ORIENTED_EDGE('',*,*,#261,.F.);
#344=ORIENTED_EDGE('',*,*,#264,.F.);
#345=ORIENTED_EDGE('',*,*,#265,.F.);
#346=ORIENTED_EDGE('',*,*,#266,.T.);
#347=ORIENTED_EDGE('',*,*,#267,.F.);
#348=ORIENTED_EDGE('',*,*,#268,.T.);
#349=ORIENTED_EDGE('',*,*,#249,.F.);
#350=ORIENTED_EDGE('',*,*,#253,.F.);
#351=ORIENTED_EDGE('',*,*,#262,.T.);
#352=ORIENTED_EDGE('',*,*,#263,.T.);
#353=ORIENTED_EDGE('',*,*,#265,.T.);
#354=ORIENTED_EDGE('',*,*,#264,.T.);
#355=ORIENTED_EDGE('',*,*,#260,.T.);
#356=ORIENTED_EDGE('',*,*,#269,.T.);
#357=ORIENTED_EDGE('',*,*,#270,.T.);
#358=ORIENTED_EDGE('',*,*,#271,.T.);
#359=ORIENTED_EDGE('',*,*,#272,.T.);
#360=ORIENTED_EDGE('',*,*,#273,.T.);
#361=ORIENTED_EDGE('',*,*,#274,.T.);
#362=ORIENTED_EDGE('',*,*,#233,.T.);
#363=ORIENTED_EDGE('',*,*,#268,.F.);
#364=ORIENTED_EDGE('',*,*,#267,.T.);
#365=ORIENTED_EDGE('',*,*,#266,.F.);
#366=ORIENTED_EDGE('',*,*,#275,.T.);
#367=ORIENTED_EDGE('',*,*,#276,.T.);
#368=ORIENTED_EDGE('',*,*,#254,.T.);
#369=ORIENTED_EDGE('',*,*,#234,.T.);
#370=ORIENTED_EDGE('',*,*,#274,.F.);
#371=ORIENTED_EDGE('',*,*,#277,.F.);
#372=ORIENTED_EDGE('',*,*,#278,.F.);
#373=ORIENTED_EDGE('',*,*,#279,.F.);
#374=ORIENTED_EDGE('',*,*,#280,.F.);
#375=ORIENTED_EDGE('',*,*,#259,.T.);
#376=ORIENTED_EDGE('',*,*,#281,.F.);
#377=ORIENTED_EDGE('',*,*,#282,.F.);
#378=ORIENTED_EDGE('',*,*,#269,.F.);
#379=ORIENTED_EDGE('',*,*,#257,.T.);
#380=ORIENTED_EDGE('',*,*,#283,.F.);
#381=ORIENTED_EDGE('',*,*,#279,.T.);
#382=ORIENTED_EDGE('',*,*,#284,.F.);
#383=ORIENTED_EDGE('',*,*,#258,.T.);
#384=ORIENTED_EDGE('',*,*,#284,.T.);
#385=ORIENTED_EDGE('',*,*,#278,.T.);
#386=ORIENTED_EDGE('',*,*,#285,.T.);
#387=ORIENTED_EDGE('',*,*,#286,.T.);
#388=ORIENTED_EDGE('',*,*,#287,.T.);
#389=ORIENTED_EDGE('',*,*,#288,.T.);
#390=ORIENTED_EDGE('',*,*,#281,.T.);
#391=ORIENTED_EDGE('',*,*,#289,.T.);
#392=ORIENTED_EDGE('',*,*,#290,.T.);
#393=ORIENTED_EDGE('',*,*,#256,.T.);
#394=ORIENTED_EDGE('',*,*,#251,.T.);
#395=ORIENTED_EDGE('',*,*,#255,.T.);
#396=ORIENTED_EDGE('',*,*,#280,.T.);
#397=ORIENTED_EDGE('',*,*,#283,.T.);
#398=ORIENTED_EDGE('',*,*,#277,.T.);
#399=ORIENTED_EDGE('',*,*,#273,.F.);
#400=ORIENTED_EDGE('',*,*,#291,.T.);
#401=ORIENTED_EDGE('',*,*,#285,.F.);
#402=ORIENTED_EDGE('',*,*,#275,.F.);
#403=ORIENTED_EDGE('',*,*,#292,.T.);
#404=ORIENTED_EDGE('',*,*,#290,.F.);
#405=ORIENTED_EDGE('',*,*,#292,.F.);
#406=ORIENTED_EDGE('',*,*,#276,.F.);
#407=ORIENTED_EDGE('',*,*,#293,.T.);
#408=ORIENTED_EDGE('',*,*,#289,.F.);
#409=ORIENTED_EDGE('',*,*,#293,.F.);
#410=ORIENTED_EDGE('',*,*,#282,.T.);
#411=ORIENTED_EDGE('',*,*,#288,.F.);
#412=ORIENTED_EDGE('',*,*,#294,.F.);
#413=ORIENTED_EDGE('',*,*,#270,.F.);
#414=ORIENTED_EDGE('',*,*,#294,.T.);
#415=ORIENTED_EDGE('',*,*,#287,.F.);
#416=ORIENTED_EDGE('',*,*,#295,.F.);
#417=ORIENTED_EDGE('',*,*,#271,.F.);
#418=ORIENTED_EDGE('',*,*,#295,.T.);
#419=ORIENTED_EDGE('',*,*,#286,.F.);
#420=ORIENTED_EDGE('',*,*,#291,.F.);
#421=ORIENTED_EDGE('',*,*,#272,.F.);
#422=PLANE('',#479);
#423=PLANE('',#480);
#424=PLANE('',#482);
#425=PLANE('',#485);
#426=PLANE('',#486);
#427=PLANE('',#487);
#428=PLANE('',#488);
#429=PLANE('',#489);
#430=PLANE('',#490);
#431=PLANE('',#492);
#432=PLANE('',#493);
#433=PLANE('',#496);
#434=PLANE('',#497);
#435=PLANE('',#498);
#436=PLANE('',#499);
#437=PLANE('',#502);
#438=PLANE('',#503);
#439=PLANE('',#506);
#440=PLANE('',#507);
#441=PLANE('',#508);
#442=ADVANCED_FACE('',(#29),#422,.T.);
#443=ADVANCED_FACE('',(#30),#423,.T.);
#444=ADVANCED_FACE('',(#31),#424,.F.);
#445=ADVANCED_FACE('',(#32),#20,.F.);
#446=ADVANCED_FACE('',(#33),#425,.T.);
#447=ADVANCED_FACE('',(#34),#426,.T.);
#448=ADVANCED_FACE('',(#35),#427,.T.);
#449=ADVANCED_FACE('',(#36),#428,.F.);
#450=ADVANCED_FACE('',(#37),#429,.F.);
#451=ADVANCED_FACE('',(#38),#430,.T.);
#452=ADVANCED_FACE('',(#39),#431,.T.);
#453=ADVANCED_FACE('',(#40,#15,#16),#432,.F.);
#454=ADVANCED_FACE('',(#41),#433,.F.);
#455=ADVANCED_FACE('',(#42),#434,.T.);
#456=ADVANCED_FACE('',(#43),#435,.F.);
#457=ADVANCED_FACE('',(#44,#17,#18),#436,.T.);
#458=ADVANCED_FACE('',(#45),#437,.T.);
#459=ADVANCED_FACE('',(#46),#438,.T.);
#460=ADVANCED_FACE('',(#47),#21,.F.);
#461=ADVANCED_FACE('',(#48),#22,.F.);
#462=ADVANCED_FACE('',(#49),#439,.T.);
#463=ADVANCED_FACE('',(#50),#440,.T.);
#464=ADVANCED_FACE('',(#51),#441,.T.);
#465=CLOSED_SHELL('',(#442,#443,#444,#445,#446,#447,#448,#449,#450,#451,
#452,#453,#454,#455,#456,#457,#458,#459,#460,#461,#462,#463,#464));
#466=DERIVED_UNIT_ELEMENT(#468,1.);
#467=DERIVED_UNIT_ELEMENT(#761,3.);
#468=(
MASS_UNIT()
NAMED_UNIT(*)
SI_UNIT(.KILO.,.GRAM.)
);
#469=DERIVED_UNIT((#466,#467));
#470=MEASURE_REPRESENTATION_ITEM('density measure',
POSITIVE_RATIO_MEASURE(2700.),#469);
#471=PROPERTY_DEFINITION_REPRESENTATION(#476,#473);
#472=PROPERTY_DEFINITION_REPRESENTATION(#477,#474);
#473=REPRESENTATION('material name',(#475),#758);
#474=REPRESENTATION('density',(#470),#758);
#475=DESCRIPTIVE_REPRESENTATION_ITEM('Aluminum','Aluminum');
#476=PROPERTY_DEFINITION('material property','material name',#768);
#477=PROPERTY_DEFINITION('material property','density of part',#768);
#478=AXIS2_PLACEMENT_3D('placement',#627,#509,#510);
#479=AXIS2_PLACEMENT_3D('',#628,#511,#512);
#480=AXIS2_PLACEMENT_3D('',#637,#517,#518);
#481=AXIS2_PLACEMENT_3D('',#644,#522,#523);
#482=AXIS2_PLACEMENT_3D('',#645,#524,#525);
#483=AXIS2_PLACEMENT_3D('',#651,#529,#530);
#484=AXIS2_PLACEMENT_3D('',#654,#532,#533);
#485=AXIS2_PLACEMENT_3D('',#655,#534,#535);
#486=AXIS2_PLACEMENT_3D('',#659,#538,#539);
#487=AXIS2_PLACEMENT_3D('',#665,#543,#544);
#488=AXIS2_PLACEMENT_3D('',#671,#548,#549);
#489=AXIS2_PLACEMENT_3D('',#675,#552,#553);
#490=AXIS2_PLACEMENT_3D('',#689,#561,#562);
#491=AXIS2_PLACEMENT_3D('',#698,#567,#568);
#492=AXIS2_PLACEMENT_3D('',#700,#570,#571);
#493=AXIS2_PLACEMENT_3D('',#701,#572,#573);
#494=AXIS2_PLACEMENT_3D('',#714,#580,#581);
#495=AXIS2_PLACEMENT_3D('',#716,#582,#583);
#496=AXIS2_PLACEMENT_3D('',#717,#584,#585);
#497=AXIS2_PLACEMENT_3D('',#725,#590,#591);
#498=AXIS2_PLACEMENT_3D('',#729,#594,#595);
#499=AXIS2_PLACEMENT_3D('',#732,#598,#599);
#500=AXIS2_PLACEMENT_3D('',#741,#604,#605);
#501=AXIS2_PLACEMENT_3D('',#743,#606,#607);
#502=AXIS2_PLACEMENT_3D('',#744,#608,#609);
#503=AXIS2_PLACEMENT_3D('',#745,#610,#611);
#504=AXIS2_PLACEMENT_3D('',#747,#613,#614);
#505=AXIS2_PLACEMENT_3D('',#749,#616,#617);
#506=AXIS2_PLACEMENT_3D('',#751,#619,#620);
#507=AXIS2_PLACEMENT_3D('',#753,#622,#623);
#508=AXIS2_PLACEMENT_3D('',#755,#625,#626);
#509=DIRECTION('axis',(0.,0.,1.));
#510=DIRECTION('refdir',(1.,0.,0.));
#511=DIRECTION('center_axis',(0.950229540973108,0.311550669171511,9.06209510870873E-7));
#512=DIRECTION('ref_axis',(-0.311550669171369,0.95022954097354,-2.97117872359289E-7));
#513=DIRECTION('',(0.311550669171369,-0.95022954097354,2.97117872359289E-7));
#514=DIRECTION('',(3.60249888730832E-15,0.,-1.));
#515=DIRECTION('',(-0.311550669171369,0.95022954097354,-2.97117872359289E-7));
#516=DIRECTION('',(-3.62672858240188E-15,0.,1.));
#517=DIRECTION('center_axis',(-9.53674319514875E-7,0.,0.999999999999545));
#518=DIRECTION('ref_axis',(0.999999999999545,0.,9.53674319514875E-7));
#519=DIRECTION('',(-0.999999999999545,0.,-9.53674319514875E-7));
#520=DIRECTION('',(0.,1.,0.));
#521=DIRECTION('',(-0.406138466053418,0.913811548620188,-3.87323825242485E-7));
#522=DIRECTION('center_axis',(9.53674319514875E-7,0.,-0.999999999999545));
#523=DIRECTION('ref_axis',(-0.838492237904606,0.544913540823759,-7.99648514402543E-7));
#524=DIRECTION('center_axis',(0.,-1.,0.));
#525=DIRECTION('ref_axis',(-3.62672858240188E-15,0.,1.));
#526=DIRECTION('',(3.60249888730832E-15,0.,-1.));
#527=DIRECTION('',(-0.999444906979154,0.,0.0333148302326349));
#528=DIRECTION('',(-3.62672858240188E-15,0.,1.));
#529=DIRECTION('center_axis',(3.60249888730832E-15,-2.46519032881566E-32,
-1.));
#530=DIRECTION('ref_axis',(-0.544913540823933,-0.838492237904874,-1.95450129789666E-15));
#531=DIRECTION('',(-3.60249888730832E-15,-1.26606052001715E-23,1.));
#532=DIRECTION('center_axis',(0.0333148302326349,2.46519032881566E-32,0.999444906979154));
#533=DIRECTION('ref_axis',(-0.999444906979154,-4.91999629545923E-14,0.0333148302326349));
#534=DIRECTION('center_axis',(0.913811548620257,0.406138466053448,3.29200512150087E-15));
#535=DIRECTION('ref_axis',(-0.406138466053418,0.913811548620188,-3.87323825239989E-7));
#536=DIRECTION('',(-3.60249888730832E-15,0.,1.));
#537=DIRECTION('',(0.406101253439658,-0.913727820239229,-0.0135367084479871));
#538=DIRECTION('center_axis',(0.018515344006021,0.999828576325131,6.71501236444614E-17));
#539=DIRECTION('ref_axis',(-0.999828576324677,0.0185153440060126,-9.5351083764764E-7));
#540=DIRECTION('',(0.999273768565272,-0.0185050697882458,-0.0333091256188388));
#541=DIRECTION('',(3.62672858240188E-15,0.,-1.));
#542=DIRECTION('',(-0.999828576325131,0.018515344006021,-3.62610683175341E-15));
#543=DIRECTION('center_axis',(0.0333148302326349,2.46519032881566E-32,0.999444906979154));
#544=DIRECTION('ref_axis',(2.11751580884081E-22,1.,-7.05838604966469E-24));
#545=DIRECTION('',(4.06366281189433E-32,1.,2.22037617737364E-16));
#546=DIRECTION('',(0.999444906979154,7.91163456379668E-18,-0.0333148302326349));
#547=DIRECTION('',(0.,1.,0.));
#548=DIRECTION('center_axis',(-1.,-7.75356149220264E-39,-3.60249888730832E-15));
#549=DIRECTION('ref_axis',(3.60249888730832E-15,8.34046562049232E-25,-1.));
#550=DIRECTION('',(3.60249888730832E-15,0.,-1.));
#551=DIRECTION('',(4.06366281189433E-32,1.,2.22037617737364E-16));
#552=DIRECTION('center_axis',(-2.35098870164458E-38,1.,2.37480860882386E-16));
#553=DIRECTION('ref_axis',(-6.27561328634694E-49,-2.37480860882386E-16,
1.));
#554=DIRECTION('',(0.999999999999545,-2.26479398516999E-22,9.53674320008315E-7));
#555=DIRECTION('',(-9.53674320008315E-7,-2.37480860882278E-16,0.999999999999545));
#556=DIRECTION('',(0.999999999999545,-2.26479398516999E-22,9.53674320008315E-7));
#557=DIRECTION('',(-9.53674320008315E-7,-2.37480860882278E-16,0.999999999999545));
#558=DIRECTION('',(-0.999999999999545,2.26479398516999E-22,-9.53674320008315E-7));
#559=DIRECTION('',(1.,-4.81140241816089E-39,3.62672858240188E-15));
#560=DIRECTION('',(3.60249888730832E-15,0.,-1.));
#561=DIRECTION('center_axis',(3.62672858240188E-15,0.,-1.));
#562=DIRECTION('ref_axis',(0.,1.,0.));
#563=DIRECTION('',(0.,1.,0.));
#564=DIRECTION('',(7.99890270839808E-31,-1.,-2.22037617737364E-16));
#565=DIRECTION('',(7.99890270839808E-31,-1.,-2.22037617737364E-16));
#566=DIRECTION('',(-0.406138466053448,0.913811548620257,-1.47295398800742E-15));
#567=DIRECTION('center_axis',(3.62672858240188E-15,0.,-1.));
#568=DIRECTION('ref_axis',(-0.544913540823933,-0.838492237904874,-1.95450129789666E-15));
#569=DIRECTION('',(1.,0.,3.62672858240188E-15));
#570=DIRECTION('center_axis',(1.,-4.81140241816089E-39,3.62672858240188E-15));
#571=DIRECTION('ref_axis',(3.62672858240188E-15,0.,-1.));
#572=DIRECTION('center_axis',(-9.53674320008315E-7,-2.22037617737263E-16,
0.999999999999545));
#573=DIRECTION('ref_axis',(-0.999999999999545,2.11751574152583E-22,-9.53674320008315E-7));
#574=DIRECTION('',(4.06366281189433E-32,1.,2.22037617737364E-16));
#575=DIRECTION('',(0.999999999999545,-2.11751574152583E-22,9.53674320008315E-7));
#576=DIRECTION('',(4.06366281189433E-32,1.,2.22037617737364E-16));
#577=DIRECTION('',(-0.999999999999545,-3.12738661860903E-16,-9.53674320008315E-7));
#578=DIRECTION('',(4.06366281189433E-32,1.,2.22037617737364E-16));
#579=DIRECTION('',(0.999999999999545,0.,9.53674320008315E-7));
#580=DIRECTION('center_axis',(-9.53674320008315E-7,-2.22037617737263E-16,
0.999999999999545));
#581=DIRECTION('ref_axis',(-0.999999999999545,2.11751574152583E-22,-9.53674320008315E-7));
#582=DIRECTION('center_axis',(-9.53674320008315E-7,-2.22037617737263E-16,
0.999999999999545));
#583=DIRECTION('ref_axis',(-0.999999999999545,2.11751574152583E-22,-9.53674320008315E-7));
#584=DIRECTION('center_axis',(0.,-1.,0.));
#585=DIRECTION('ref_axis',(-9.02286010040936E-48,0.,-1.));
#586=DIRECTION('',(9.53674320008315E-7,0.,-0.999999999999545));
#587=DIRECTION('',(-0.999999999999545,0.,-9.53674320008315E-7));
#588=DIRECTION('',(9.53674320008315E-7,0.,-0.999999999999545));
#589=DIRECTION('',(-0.999999999999545,0.,-9.53674320008315E-7));
#590=DIRECTION('center_axis',(-0.999999999999545,2.11751574152583E-22,-9.53674320008315E-7));
#591=DIRECTION('ref_axis',(-4.06366281189433E-32,-1.,-2.22037617737364E-16));
#592=DIRECTION('',(-4.06366281189433E-32,-1.,-2.22037617737364E-16));
#593=DIRECTION('',(-9.53674320008315E-7,-2.22037617737263E-16,0.999999999999545));
#594=DIRECTION('center_axis',(0.999999999999545,-2.11751574152583E-22,9.53674320008315E-7));
#595=DIRECTION('ref_axis',(4.06366281189433E-32,1.,2.22037617737364E-16));
#596=DIRECTION('',(-4.06366281189433E-32,-1.,-2.22037617737364E-16));
#597=DIRECTION('',(4.06366281189433E-32,1.,2.22037617737364E-16));
#598=DIRECTION('center_axis',(-9.53674320008315E-7,-2.22037617737263E-16,
0.999999999999545));
#599=DIRECTION('ref_axis',(-0.999999999999545,2.11751574152583E-22,-9.53674320008315E-7));
#600=DIRECTION('',(-4.06366281189433E-32,-1.,-2.22037617737364E-16));
#601=DIRECTION('',(0.999999999999545,3.12738661860903E-16,9.53674320008315E-7));
#602=DIRECTION('',(-4.06366281189433E-32,-1.,-2.22037617737364E-16));
#603=DIRECTION('',(-0.999999999999545,2.11751574152583E-22,-9.53674320008315E-7));
#604=DIRECTION('center_axis',(9.53674320008315E-7,2.22037617737263E-16,
-0.999999999999545));
#605=DIRECTION('ref_axis',(-0.999999999999545,2.11751574152583E-22,-9.53674320008315E-7));
#606=DIRECTION('center_axis',(9.53674320008315E-7,2.22037617737263E-16,
-0.999999999999545));
#607=DIRECTION('ref_axis',(-0.999999999999545,2.11751574152583E-22,-9.53674320008315E-7));
#608=DIRECTION('center_axis',(-9.53674320008315E-7,-2.22037617737263E-16,
0.999999999999545));
#609=DIRECTION('ref_axis',(4.06366281189433E-32,1.,2.22037617737364E-16));
#610=DIRECTION('center_axis',(-0.999999999999545,2.11751574152583E-22,-9.53674320008315E-7));
#611=DIRECTION('ref_axis',(-4.06366281189433E-32,-1.,-2.22037617737364E-16));
#612=DIRECTION('',(-9.53674320008315E-7,-2.22037617737263E-16,0.999999999999545));
#613=DIRECTION('center_axis',(-9.53674320008315E-7,-2.22037617737263E-16,
0.999999999999545));
#614=DIRECTION('ref_axis',(-0.999999999999545,2.11751574152583E-22,-9.53674320008315E-7));
#615=DIRECTION('',(-9.53674320008315E-7,-2.22037617737263E-16,0.999999999999545));
#616=DIRECTION('center_axis',(-9.53674320008315E-7,-2.22037617737263E-16,
0.999999999999545));
#617=DIRECTION('ref_axis',(-0.999999999999545,2.11751574152583E-22,-9.53674320008315E-7));
#618=DIRECTION('',(-9.53674320008315E-7,-2.22037617737263E-16,0.999999999999545));
#619=DIRECTION('center_axis',(4.06366281189433E-32,1.,2.22037617737364E-16));
#620=DIRECTION('ref_axis',(-0.999999999999545,2.11751574152583E-22,-9.53674320008315E-7));
#621=DIRECTION('',(-9.53674320008315E-7,-2.22037617737263E-16,0.999999999999545));
#622=DIRECTION('center_axis',(-0.999999999999545,2.11751574152583E-22,-9.53674320008315E-7));
#623=DIRECTION('ref_axis',(-4.06366281189433E-32,-1.,-2.22037617737364E-16));
#624=DIRECTION('',(-9.53674320008315E-7,-2.22037617737263E-16,0.999999999999545));
#625=DIRECTION('center_axis',(-4.06366281189433E-32,-1.,-2.22037617737364E-16));
#626=DIRECTION('ref_axis',(0.999999999999545,-2.11751574152583E-22,9.53674320008315E-7));
#627=CARTESIAN_POINT('',(0.,0.,0.));
#628=CARTESIAN_POINT('Origin',(17.9999207635847,-7.65000000000002,85.2729145879833));
#629=CARTESIAN_POINT('',(11.9999207635901,10.65,85.2729088659462));
#630=CARTESIAN_POINT('',(17.9999207635901,-7.65000000000002,85.2729088659462));
#631=CARTESIAN_POINT('',(11.9999207635901,10.65,85.2729088659374));
#632=CARTESIAN_POINT('',(11.9999188562415,10.65,87.2729088659365));
#633=CARTESIAN_POINT('',(11.9999207635901,10.65,92.7729237194317));
#634=CARTESIAN_POINT('',(17.999918856236,-7.65000000000002,87.2729145879825));
#635=CARTESIAN_POINT('',(11.9999188562415,10.65,87.2729088659365));
#636=CARTESIAN_POINT('',(17.9999207635901,-7.65000000000002,88.7729036207388));
#637=CARTESIAN_POINT('Origin',(6.49992540530026,-1.11022302462516E-14,87.272903620734));
#638=CARTESIAN_POINT('',(17.9495400308555,-7.65000000000002,87.2729145399375));
#639=CARTESIAN_POINT('',(39.2499221307386,-7.65000000000002,87.2729348535649));
#640=CARTESIAN_POINT('',(11.9999188562415,1.3500042915344,87.2729088659365));
#641=CARTESIAN_POINT('',(11.9999207635901,5.32499999999999,87.2729088659383));
#642=CARTESIAN_POINT('',(15.2081053849947,-5.86841539816036,87.2729119255016));
#643=CARTESIAN_POINT('',(12.7968287561732,-0.44304298331202,87.272909625929));
#644=CARTESIAN_POINT('Origin',(17.9495400308555,-4.65000000000001,87.2729145399375));
#645=CARTESIAN_POINT('Origin',(71.9999207635901,-7.65000000000002,85.2728983755327));
#646=CARTESIAN_POINT('',(17.9495400308554,-7.65000000000002,99.0745882237017));
#647=CARTESIAN_POINT('',(17.9495400308555,-7.65000000000002,88.7729009981392));
#648=CARTESIAN_POINT('',(17.9999207635901,-7.65000000000002,99.0729088659438));
#649=CARTESIAN_POINT('',(57.1996989626535,-7.65000000000002,97.7662495926419));
#650=CARTESIAN_POINT('',(17.9999207635901,-7.65000000000002,88.7729036207388));
#651=CARTESIAN_POINT('Origin',(17.9495400308555,-4.65000000000001,88.7729009981392));
#652=CARTESIAN_POINT('',(15.2081053849947,-5.86841539816036,99.1659693785637));
#653=CARTESIAN_POINT('',(15.2081053849947,-5.86841539816036,88.7729009981391));
#654=CARTESIAN_POINT('Origin',(17.9495400308555,-4.65000000000001,99.0745882237017));
#655=CARTESIAN_POINT('Origin',(13.9999207635901,-3.15000000000002,92.2729036207457));
#656=CARTESIAN_POINT('',(11.9999207635846,1.34999999999998,99.2729088659438));
#657=CARTESIAN_POINT('',(11.9999207635901,1.34999999999998,92.2729036207457));
#658=CARTESIAN_POINT('',(16.1773338523579,-8.04917944972753,99.1336617629849));
#659=CARTESIAN_POINT('Origin',(44.9999207635901,-8.15000000000002,88.7729036207389));
#660=CARTESIAN_POINT('',(71.9999207635901,-8.65000000000002,97.272908865944));
#661=CARTESIAN_POINT('',(43.603016829296,-8.1241314086242,98.2194723304204));
#662=CARTESIAN_POINT('',(71.9999207635901,-8.65000000000002,85.2729088659464));
#663=CARTESIAN_POINT('',(71.9999207635901,-8.65000000000002,88.772903620739));
#664=CARTESIAN_POINT('',(28.5287174725377,-7.84497771683238,85.2729088659463));
#665=CARTESIAN_POINT('Origin',(41.9999207635901,-2.32500000000001,98.2729088659439));
#666=CARTESIAN_POINT('',(11.9999207635846,-10.65,99.2729088659438));
#667=CARTESIAN_POINT('',(11.9999207635846,-5.32500000000002,99.2729088659438));
#668=CARTESIAN_POINT('',(71.9999207635901,-10.65,97.272908865944));
#669=CARTESIAN_POINT('',(18.7257872543656,-10.65,99.0487133162513));
#670=CARTESIAN_POINT('',(71.9999207635901,-2.32500000000001,97.272908865944));
#671=CARTESIAN_POINT('Origin',(11.9999207635901,10.65,99.272908865959));
#672=CARTESIAN_POINT('',(11.9999207635846,10.65,99.2729088659438));
#673=CARTESIAN_POINT('',(11.9999207635901,10.65,92.7729237194317));
#674=CARTESIAN_POINT('',(11.9999207635846,-5.32500000000002,99.2729088659438));
#675=CARTESIAN_POINT('Origin',(-5.0000670919612,-10.65,86.272892653486));
#676=CARTESIAN_POINT('',(9.54992058477183,-10.65,99.2729065294415));
#677=CARTESIAN_POINT('',(10.3249205475186,-10.65,99.2729072685391));
#678=CARTESIAN_POINT('',(9.54993012151504,-10.65,89.2729065294461));
#679=CARTESIAN_POINT('',(9.54993155202651,-10.65,87.7729065294468));
#680=CARTESIAN_POINT('',(-5.00006995298416,-10.65,89.2728926534847));
#681=CARTESIAN_POINT('',(7.03743006563682,-10.65,89.2729041333393));
#682=CARTESIAN_POINT('',(-5.00006613828688,-10.65,85.2728926534865));
#683=CARTESIAN_POINT('',(-5.0000670919612,-10.65,86.272892653486));
#684=CARTESIAN_POINT('',(11.9999207635901,-10.65,85.2729088659462));
#685=CARTESIAN_POINT('',(7.0374338803341,-10.65,85.2729041333411));
#686=CARTESIAN_POINT('',(71.9999207635901,-10.65,85.2729088659464));
#687=CARTESIAN_POINT('',(11.9999207635901,-10.65,85.2729088659462));
#688=CARTESIAN_POINT('',(71.9999207635901,-10.65,85.2729088659464));
#689=CARTESIAN_POINT('Origin',(11.9999207635901,-10.65,85.2729088659462));
#690=CARTESIAN_POINT('',(71.9999207635901,-4.65000000000001,85.2729088659464));
#691=CARTESIAN_POINT('',(11.9999207635901,-7.65000000000002,85.2728983755325));
#692=CARTESIAN_POINT('',(11.9999207635901,5.32499999999999,85.2729088659374));
#693=CARTESIAN_POINT('',(11.9999207635901,1.34999999999998,85.2729088659374));
#694=CARTESIAN_POINT('',(11.9999207635901,5.32499999999999,85.2729088659374));
#695=CARTESIAN_POINT('',(15.2081053849947,-5.86841539816036,85.2729088659462));
#696=CARTESIAN_POINT('',(15.2267248873015,-5.91030927835053,85.2729088659462));
#697=CARTESIAN_POINT('',(17.9495400308555,-7.65000000000002,85.2729088659462));
#698=CARTESIAN_POINT('Origin',(17.9495400308555,-4.65000000000001,85.2729088659462));
#699=CARTESIAN_POINT('',(41.9999207635901,-7.65000000000002,85.2729088659463));
#700=CARTESIAN_POINT('Origin',(71.9999207635901,-1.33226762955019E-14,92.2729088659452));
#701=CARTESIAN_POINT('Origin',(19.0749338989551,-1.55844420265676E-14,85.2729156131958));
#702=CARTESIAN_POINT('',(-5.00006613828688,-5.15000000000002,85.2728926534865));
#703=CARTESIAN_POINT('',(-5.00006613828688,-10.65,85.2728926534865));
#704=CARTESIAN_POINT('',(5.14993393621432,-5.15000000000002,85.2729023332809));
#705=CARTESIAN_POINT('',(1.449933936216,-5.15000000000002,85.2728988046859));
#706=CARTESIAN_POINT('',(5.14993393621432,5.14999999999998,85.2729023332809));
#707=CARTESIAN_POINT('',(5.14993393621432,-5.15000000000002,85.2729023332809));
#708=CARTESIAN_POINT('',(-5.00006613828688,5.14999999999998,85.2728926534865));
#709=CARTESIAN_POINT('',(-1.45006606378268,5.14999999999998,85.2728960390304));
#710=CARTESIAN_POINT('',(-5.00006613828688,10.65,85.2728926534865));
#711=CARTESIAN_POINT('',(-5.00006613828688,9.99999999999998,85.2728926534865));
#712=CARTESIAN_POINT('',(31.1124339175761,10.65,85.2729270930504));
#713=CARTESIAN_POINT('',(0.999933936216203,-7.65000000000002,85.2728983755325));
#714=CARTESIAN_POINT('Origin',(-6.60637833425721E-5,-7.65000000000002,85.2728974218581));
#715=CARTESIAN_POINT('',(0.999933936216203,7.64999999999999,85.2728983755325));
#716=CARTESIAN_POINT('Origin',(-6.60637833425721E-5,7.64999999999999,85.2728974218581));
#717=CARTESIAN_POINT('Origin',(43.1499329825227,10.65,86.2729385729046));
#718=CARTESIAN_POINT('',(-5.00006995298416,10.65,89.2728926534847));
#719=CARTESIAN_POINT('',(-5.0000670919612,10.65,86.2728926534861));
#720=CARTESIAN_POINT('',(9.54993012151504,10.65,89.2729065294461));
#721=CARTESIAN_POINT('',(31.1124301028788,10.65,89.2729270930486));
#722=CARTESIAN_POINT('',(9.54992058477183,10.65,99.2729065294415));
#723=CARTESIAN_POINT('',(9.54993155202651,10.65,87.7729065294468));
#724=CARTESIAN_POINT('',(34.3999205847605,10.65,99.2729302282484));
#725=CARTESIAN_POINT('Origin',(-5.0000670919612,-5.15000000000002,86.2728926534861));
#726=CARTESIAN_POINT('',(-5.00006995298416,-5.15000000000002,89.2728926534847));
#727=CARTESIAN_POINT('',(-5.00006995298416,-10.,89.2728926534847));
#728=CARTESIAN_POINT('',(-5.0000670919612,-5.15000000000002,86.2728926534861));
#729=CARTESIAN_POINT('Origin',(9.54993012151504,10.65,89.2729065294461));
#730=CARTESIAN_POINT('',(9.54992058477183,-5.32500000000002,99.2729065294415));
#731=CARTESIAN_POINT('',(9.54993012151504,5.32499999999998,89.2729065294461));
#732=CARTESIAN_POINT('Origin',(19.0749300842578,-1.64725924975167E-14,89.272915613194));
#733=CARTESIAN_POINT('',(-5.00006995298416,5.14999999999998,89.2728926534847));
#734=CARTESIAN_POINT('',(-5.00006995298416,-10.65,89.2728926534847));
#735=CARTESIAN_POINT('',(5.14993012151704,5.14999999999998,89.2729023332791));
#736=CARTESIAN_POINT('',(-1.45006987847996,5.14999999999998,89.2728960390286));
#737=CARTESIAN_POINT('',(5.14993012151704,-5.15000000000002,89.2729023332791));
#738=CARTESIAN_POINT('',(5.14993012151704,-5.15000000000002,89.2729023332791));
#739=CARTESIAN_POINT('',(1.44993012151872,-5.15000000000002,89.2728988046841));
#740=CARTESIAN_POINT('',(0.999930121518923,7.64999999999998,89.2728983755306));
#741=CARTESIAN_POINT('Origin',(-6.98784806226054E-5,7.64999999999998,89.2728974218564));
#742=CARTESIAN_POINT('',(0.999930121518923,-7.65000000000002,89.2728983755306));
#743=CARTESIAN_POINT('Origin',(-6.98784806226054E-5,-7.65000000000002,89.2728974218563));
#744=CARTESIAN_POINT('Origin',(25.6499205847645,-1.64725240179056E-14,99.2729218835981));
#745=CARTESIAN_POINT('Origin',(-5.0000670919612,10.65,86.2728926534861));
#746=CARTESIAN_POINT('',(-5.0000670919612,5.14999999999998,86.2728926534861));
#747=CARTESIAN_POINT('Origin',(-6.70174576625804E-5,-7.65000000000002,86.2728974218577));
#748=CARTESIAN_POINT('',(0.999932982541883,-7.65000000000002,86.272898375532));
#749=CARTESIAN_POINT('Origin',(-6.70174576625804E-5,7.64999999999999,86.2728974218577));
#750=CARTESIAN_POINT('',(0.999932982541883,7.64999999999999,86.272898375532));
#751=CARTESIAN_POINT('Origin',(-1.450067017457,-5.15000000000002,86.2728960390299));
#752=CARTESIAN_POINT('',(5.14993298254,-5.15000000000002,86.2729023332805));
#753=CARTESIAN_POINT('Origin',(5.14993298254,5.14999999999998,86.2729023332805));
#754=CARTESIAN_POINT('',(5.14993298254,5.14999999999998,86.2729023332805));
#755=CARTESIAN_POINT('Origin',(1.44993298254168,5.14999999999998,86.2728988046855));
#756=UNCERTAINTY_MEASURE_WITH_UNIT(LENGTH_MEASURE(0.01),#760,
'DISTANCE_ACCURACY_VALUE',
'Maximum model space distance between geometric entities at asserted c
onnectivities');
#757=UNCERTAINTY_MEASURE_WITH_UNIT(LENGTH_MEASURE(0.01),#760,
'DISTANCE_ACCURACY_VALUE',
'Maximum model space distance between geometric entities at asserted c
onnectivities');
#758=(
GEOMETRIC_REPRESENTATION_CONTEXT(3)
GLOBAL_UNCERTAINTY_ASSIGNED_CONTEXT((#756))
GLOBAL_UNIT_ASSIGNED_CONTEXT((#760,#763,#762))
REPRESENTATION_CONTEXT('','3D')
);
#759=(
GEOMETRIC_REPRESENTATION_CONTEXT(3)
GLOBAL_UNCERTAINTY_ASSIGNED_CONTEXT((#757))
GLOBAL_UNIT_ASSIGNED_CONTEXT((#760,#763,#762))
REPRESENTATION_CONTEXT('','3D')
);
#760=(
LENGTH_UNIT()
NAMED_UNIT(*)
SI_UNIT(.MILLI.,.METRE.)
);
#761=(
LENGTH_UNIT()
NAMED_UNIT(*)
SI_UNIT($,.METRE.)
);
#762=(
NAMED_UNIT(*)
SI_UNIT($,.STERADIAN.)
SOLID_ANGLE_UNIT()
);
#763=(
NAMED_UNIT(*)
PLANE_ANGLE_UNIT()
SI_UNIT($,.RADIAN.)
);
#764=SHAPE_DEFINITION_REPRESENTATION(#765,#766);
#765=PRODUCT_DEFINITION_SHAPE('',$,#768);
#766=SHAPE_REPRESENTATION('',(#478),#758);
#767=PRODUCT_DEFINITION_CONTEXT('part definition',#772,'design');
#768=PRODUCT_DEFINITION('FusionComponent','FusionComponent',#769,#767);
#769=PRODUCT_DEFINITION_FORMATION('',$,#774);
#770=PRODUCT_RELATED_PRODUCT_CATEGORY('FusionComponent',
'FusionComponent',(#774));
#771=APPLICATION_PROTOCOL_DEFINITION('international standard',
'automotive_design',2009,#772);
#772=APPLICATION_CONTEXT(
'Core Data for Automotive Mechanical Design Process');
#773=PRODUCT_CONTEXT('part definition',#772,'mechanical');
#774=PRODUCT('FusionComponent','FusionComponent',$,(#773));
#775=PRESENTATION_STYLE_ASSIGNMENT((#777));
#776=PRESENTATION_STYLE_ASSIGNMENT((#778));
#777=SURFACE_STYLE_USAGE(.BOTH.,#779);
#778=SURFACE_STYLE_USAGE(.BOTH.,#780);
#779=SURFACE_SIDE_STYLE('',(#781));
#780=SURFACE_SIDE_STYLE('',(#782));
#781=SURFACE_STYLE_FILL_AREA(#783);
#782=SURFACE_STYLE_FILL_AREA(#784);
#783=FILL_AREA_STYLE('Aluminum - Satin',(#785));
#784=FILL_AREA_STYLE('Opaque(25,25,25)',(#786));
#785=FILL_AREA_STYLE_COLOUR('Aluminum - Satin',#787);
#786=FILL_AREA_STYLE_COLOUR('Opaque(25,25,25)',#788);
#787=COLOUR_RGB('Aluminum - Satin',0.96078431372549,0.96078431372549,0.964705882352941);
#788=COLOUR_RGB('Opaque(25,25,25)',0.0980392156862745,0.0980392156862745,
0.0980392156862745);
ENDSEC;
END-ISO-10303-21;
