Axe des emplacements	Global	
Axe de valeurs	Global	
x(mm)	y(mm)	z(mm)	C1(mm)	C2(mm)	C3(mm)	
0	0	0	0	0	0,3	
2	0	0	0	0	0,3	
0	0	-70	0	0	0	
2	0	-70	0	0	0	
0	25	-70	0	0	0	
2	25	-70	0	0	0	
0	25	0	0	0	0,3	
2	25	0	0	0	0,3	
0	0	-3,25	0,00361176	0,00964547	0,286808	
0	0	-7	0,00628734	0,0148847	0,270072	
0	0	-11	0,00780531	0,0171951	0,253677	
0	0	-14,7082	0,00820791	0,0180052	0,238188	
0	0	-19	0,00766955	0,0185816	0,220065	
0	0	-22,7082	0,00651962	0,0186191	0,204152	
0	0	-27	0,00459853	0,0187224	0,185512	
0	0	-31	0,00251649	0,0187619	0,168019	
0	0	-35	0,000300658	0,0188516	0,150436	
0	0	-39	-0,00186179	0,0189572	0,132835	
0	0	-43	-0,00378977	0,0191279	0,115219	
0	0	-47,2918	-0,00543027	0,0192071	0,0964145	
0	0	-51	-0,0062075	0,0193267	0,0802427	
0	0	-55,7639	-0,00625752	0,01876	0,0598355	
0	0	-59,8852	-0,00509984	0,017873	0,0422499	
0	0	-62,541	-0,00352535	0,0160505	0,0311976	
0	0	-66,5	-0,000362118	0,0117471	0,0145847	
2	0	-3,25	0,000210463	0,0101002	0,288682	
2	0	-7,0625	0,00303689	0,015054	0,271328	
2	0	-11	0,00490061	0,0175284	0,254183	
2	0	-15	0,00514739	0,0184565	0,236894	
2	0	-19	0,00472424	0,0190163	0,219642	
2	0	-23	0,00334297	0,0190645	0,2021	
2	0	-27	0,00159038	0,0191359	0,18457	
2	0	-31	-0,000532625	0,019146	0,166964	
2	0	-35	-0,00274451	0,019197	0,149374	
2	0	-39	-0,00487402	0,0192604	0,131852	
2	0	-43	-0,00685004	0,0193977	0,114386	
2	0	-47	-0,00827685	0,0194239	0,0971393	
2	0	-51	-0,00926419	0,0194993	0,0800505	
2	0	-55,2898	-0,00914862	0,018935	0,0621024	
2	0	-58,704	-0,00850524	0,0183066	0,0479895	
2	0	-62,9453	-0,00630395	0,0156356	0,0311383	
2	0	-66,75	-0,00328733	0,0102243	0,0149059	
0	20,75	-70	0	0	0	
0	16,5	-70	0	0	0	
0	12,2082	-70	0	0	0	
0	8,5	-70	0	0	0	
0	4,56004	-70	0	0	0	
2	20,75	-70	0	0	0	
2	16,5	-70	0	0	0	
2	13,4443	-70	0	0	0	
2	8,2082	-70	0	0	0	
2	4,5	-70	0	0	0	
0	25	-66,75	0,000119503	-0,00981358	0,011065	
0	25	-63,7162	-0,00332155	-0,0143743	0,0256499	
0	25	-59	-0,00638451	-0,0175694	0,0457888	
0	25	-55,7639	-0,00779817	-0,0183553	0,0597191	
0	25	-51	-0,00848333	-0,0191238	0,0802874	
0	25	-46,6869	-0,0082132	-0,0191897	0,0991573	
0	25	-42,7082	-0,0072142	-0,0193064	0,116718	
0	25	-39	-0,00587116	-0,0193531	0,133082	
0	25	-35	-0,00424534	-0,0194653	0,150659	
0	25	-31	-0,00255935	-0,0195733	0,168202	
0	25	-27	-0,000929576	-0,0197213	0,185704	
0	25	-23	0,000326319	-0,0197938	0,202944	
0	25	-19	0,00132934	-0,0199003	0,220162	
0	25	-15	0,00163901	-0,0194071	0,236821	
0	25	-11,2918	0,00154786	-0,0188645	0,252247	
0	25	-6,74467	0,000982784	-0,015714	0,27105	
0	25	-3,88298	0,00107383	-0,0125305	0,28294	
2	25	-66,2447	-0,00415884	-0,0106265	0,0158755	
2	25	-63	-0,00683007	-0,0147338	0,0299843	
2	25	-59	-0,00947895	-0,0174653	0,0468449	
2	25	-55,2918	-0,0107803	-0,0182901	0,0622852	
2	25	-51	-0,0115542	-0,0189454	0,0803508	
2	25	-47	-0,0111987	-0,0189623	0,0975482	
2	25	-43	-0,0103839	-0,0190129	0,114802	
2	25	-39,4721	-0,009088	-0,0190193	0,130233	
2	25	-34,7082	-0,00715353	-0,0191019	0,151093	
2	25	-31,4377	-0,00577209	-0,0191449	0,16546	
2	25	-26,5279	-0,00377149	-0,0192854	0,187009	
2	25	-23,4164	-0,00279139	-0,0192854	0,200592	
2	25	-18,5279	-0,00156791	-0,0193486	0,221793	
2	25	-15,4164	-0,00130155	-0,0189305	0,235041	
2	25	-11	-0,00145288	-0,0182268	0,253621	
2	25	-6,55737	-0,00198189	-0,0150703	0,271551	
2	25	-3,25	-0,00162881	-0,00982721	0,285241	
0	4,25	0	0	0	0,3	
0	8,5	0	0	0	0,3	
0	12,5	0	0	0	0,3	
0	16,7574	0	0	0	0,3	
0	20,0279	0	0	0	0,3	
2	4,25	0	0	0	0,3	
2	8,18996	0	0	0	0,3	
2	12,5	0	0	0	0,3	
2	16,9606	0	0	0	0,3	
2	20,8281	0	0	0	0,3	
0	4,29804	-3,30001	0,00299766	0,00534662	0,2871	
0	4,29063	-7,03662	0,00583449	0,00895493	0,272168	
0	4,29281	-11,0044	0,00691505	0,0107912	0,255057	
0	4,30457	-14,8543	0,00738975	0,01175	0,2385	
0	4,40676	-19	0,00665882	0,0118383	0,220558	
0	4,34082	-22,8541	0,00556805	0,0120775	0,203736	
0	4,5	-27	0,00365325	0,0118484	0,185634	
0	4,40625	-31	0,00168522	0,0120569	0,168069	
0	4,5	-35	-0,000473159	0,011989	0,150475	
0	4,40625	-39	-0,00255081	0,0122639	0,132856	
0	4,44897	-43	-0,00437472	0,0123202	0,115188	
0	4,20628	-47,1459	-0,00590076	0,012908	0,0968678	
0	4,88914	-51,2946	-0,00665291	0,0118564	0,0784535	
0	3,73767	-55,1767	-0,00662804	0,0134766	0,0614107	
0	4,61862	-59,818	-0,00513828	0,0109833	0,0405935	
0	3,43712	-62,0715	-0,00378127	0,011724	0,0308519	
0	4,26215	-66,5645	0,000126375	0,00567715	0,0101433	
0	8,28614	-66,5613	-0,000154873	0,00267378	0,0108038	
0	11,2866	-66,5139	-0,000667623	0,000596383	0,0102519	
0	16,5133	-66,8839	0,00046269	-0,00205146	0,00864379	
0	20,7741	-66,8035	-4,75599e-005	-0,00546178	0,0105811	
0	22,0734	-3,59	0,00203887	-0,00732726	0,287568	
0	19,9436	-7,61081	0,00271698	-0,00946718	0,270835	
0	16,6151	-3,4575	0,0021641	-0,00284912	0,288559	
0	16,4699	-7,79886	0,00362835	-0,00537334	0,270306	
0	16,5	-11	0,00424827	-0,00611289	0,256564	
0	12,643	-6,98934	0,00444981	-0,000692505	0,273894	
0	12,5282	-11,1464	0,00520338	-0,000667124	0,255923	
0	12,4864	-14,4725	0,00538608	-0,000618974	0,241343	
0	8,52426	-10,8562	0,00615277	0,00486956	0,25701	
0	8,42972	-15,3823	0,00622872	0,00554101	0,237001	
0	12,4881	-19,0001	0,00466122	-0,000632297	0,22127	
0	8,47422	-18,8541	0,00580117	0,00564793	0,221663	
0	12,5426	-22,5279	0,00370394	-0,000661079	0,205596	
0	8,48123	-23	0,00449382	0,00565535	0,203425	
0	12,3541	-26,968	0,00195592	-0,000276501	0,186021	
0	8,4732	-26,764	0,00294513	0,00575422	0,186818	
0	12,4874	-30,528	0,000282798	-0,000398464	0,17028	
0	8,49153	-31	0,000858474	0,00577122	0,168167	
0	12,5	-35	-0,00192412	-0,000289183	0,150529	
0	8,47621	-35,001	-0,00119366	0,00590953	0,150518	
0	12,6864	-38,9498	-0,00385155	-0,00047384	0,133055	
0	8,00006	-39,0033	-0,00309983	0,00674623	0,132828	
0	12,4589	-43,3488	-0,00567022	-1,85399e-005	0,113482	
0	8,47985	-42,8541	-0,00492468	0,00614093	0,115804	
0	12,1878	-46,8392	-0,00672564	0,000500233	0,0978659	
0	8,90849	-47,1646	-0,00639192	0,00562266	0,0965033	
0	12,1536	-51,2438	-0,00735486	0,000670992	0,0780525	
0	8,3556	-50,618	-0,00692598	0,00652239	0,0810932	
0	12,4834	-54,4573	-0,00722962	0,000187278	0,0635866	
0	8,87599	-55,0051	-0,00691592	0,00569537	0,0612407	
0	12,5	-59	-0,00592931	0,00018236	0,0426676	
0	8,06724	-58,6211	-0,00568629	0,00637643	0,0449811	
0	13,0505	-63,5186	-0,00330905	-0,000358349	0,022816	
0	8,24844	-62,8428	-0,00349501	0,00482497	0,0260557	
0	16,8347	-58,6199	-0,00622684	-0,00590297	0,0449745	
0	16,3179	-61,618	-0,00463238	-0,00451383	0,0314777	
0	20,2923	-58,8252	-0,0062963	-0,010703	0,0448484	
0	20,8464	-63,214	-0,00362368	-0,00904853	0,025671	
0	21,107	-55,2161	-0,00778147	-0,0128173	0,0610647	
0	16,2117	-54,7344	-0,00754847	-0,00548814	0,062491	
0	20,4195	-51,2872	-0,00803857	-0,0120875	0,0784212	
0	16,5117	-50	-0,00765017	-0,00616011	0,0837419	
0	21,0659	-46,9176	-0,00785848	-0,0132749	0,0979097	
0	16,1464	-46,505	-0,00711609	-0,00566423	0,0994774	
0	20,2639	-43,0094	-0,00659961	-0,0120601	0,115206	
0	16,6529	-42,8571	-0,00608355	-0,00653334	0,115804	
0	20,7668	-39,1459	-0,00525921	-0,0129139	0,132313	
0	16,118	-38,9624	-0,0043864	-0,00575679	0,133032	
0	20,5	-35	-0,00340897	-0,0125938	0,150597	
0	16,5	-35	-0,00266817	-0,00646855	0,150566	
0	20,5469	-31	-0,00162524	-0,0128014	0,168194	
0	16,5	-31	-0,000788718	-0,00657667	0,168209	
0	20,5	-27	5,81255e-005	-0,0128514	0,185721	
0	16,5	-27	0,00101043	-0,006721	0,185819	
0	20,5109	-23,1459	0,00146958	-0,0130589	0,202601	
0	16,5	-23	0,002487	-0,00682163	0,203458	
0	20,5	-19	0,00248875	-0,0130142	0,220657	
0	16,5	-19	0,00363982	-0,00689939	0,221094	
0	20,5	-15	0,0030525	-0,0129579	0,238125	
0	16,5	-15	0,00413707	-0,00677404	0,2388	
0	12,4921	-3,29907	0,00252606	-0,000317967	0,28787	
0	8,43245	-3,36027	0,00304316	0,00227126	0,288645	
0	8,04337	-7,1024	0,00507025	0,00445759	0,27278	
0	20,5549	-11,0572	0,00290849	-0,0120806	0,255285	
2	4,32465	-3,27162	-0,000194263	0,00573396	0,289112	
2	4,29601	-7,06415	0,00254872	0,00931841	0,273072	
2	4,42903	-10,3871	0,00363232	0,0108627	0,258317	
2	4,41664	-15,0006	0,00427466	0,0121081	0,237875	
2	4,44017	-18,5279	0,00371467	0,0122442	0,222231	
2	4,51201	-23,1459	0,00236318	0,0122783	0,201737	
2	4,46629	-26,382	0,000912044	0,0123194	0,187437	
2	4,45312	-31	-0,00137811	0,0123754	0,167053	
2	4,4623	-34,382	-0,00318889	0,0123845	0,152164	
2	4,45312	-39	-0,00560162	0,0125088	0,131899	
2	4,70189	-42,8577	-0,00739428	0,0122067	0,115	
2	4,5	-47	-0,00886676	0,0127013	0,0969517	
2	4,82414	-51,3427	-0,00972609	0,0121277	0,0780862	
2	4,26393	-55,1578	-0,00961492	0,0128642	0,0616749	
2	5,02	-59,64	-0,00838836	0,0105407	0,0421897	
2	3,7499	-62,42	-0,00682536	0,0110184	0,0305837	
2	4,5	-67	-0,00291064	0,00480771	0,0103304	
2	8,76503	-66,6272	-0,00339292	0,00235425	0,0127632	
2	12,1442	-66,6843	-0,00404285	0,000275977	0,0119673	
2	16,6898	-66,5669	-0,00341132	-0,0023836	0,0120821	
2	20,7379	-66,7893	-0,00343203	-0,00552293	0,012782	
2	22,1447	-3,45738	-0,00124083	-0,00685543	0,287326	
2	20,9564	-7,20591	-0,000876184	-0,010151	0,272368	
2	16,5454	-3,48888	-0,00109777	-0,00261215	0,289695	
2	16,5061	-7,0754	6,85635e-005	-0,0045614	0,274045	
2	16,2639	-10,9887	0,00102517	-0,00536368	0,256916	
2	12,5088	-7,10891	0,00128517	-0,00011076	0,274213	
2	12,5	-11	0,00197403	-0,000128313	0,25681	
2	12,4814	-15,1481	0,00220852	-0,000120686	0,238219	
2	8,46935	-11,0179	0,00300709	0,00546361	0,256655	
2	8,46628	-14,8541	0,00310167	0,00591038	0,239345	
2	12,4964	-19,0001	0,00157409	-0,000125627	0,220835	
2	8,48099	-19,382	0,00260106	0,0061383	0,218905	
2	12,5581	-23,2361	0,000394252	-0,000190564	0,201766	
2	8,5	-23	0,00142996	0,0061075	0,202737	
2	12,3512	-27,0357	-0,00112605	0,000178967	0,184852	
2	8,49943	-27,1459	-0,000286735	0,0061544	0,184236	
2	12,4938	-31,2361	-0,003108	1,42188e-005	0,1662	
2	8,4807	-30,8541	-0,00211186	0,00619191	0,167827	
2	13,0279	-35,005	-0,00506003	-0,000742641	0,149561	
2	8,34238	-35,0701	-0,00424052	0,00647647	0,149208	
2	12,5669	-39,0452	-0,0069369	3,98353e-005	0,131738	
2	8,5	-39	-0,0062346	0,00630087	0,131896	
2	13,3134	-43,5786	-0,00887724	-0,00105961	0,111791	
2	8,41217	-43,8541	-0,00835104	0,00655995	0,110626	
2	12,5329	-46,6098	-0,00974912	0,000205036	0,0984302	
2	9,00719	-47,4525	-0,00952347	0,00569816	0,0947866	
2	12,6459	-51,031	-0,0104635	9,66366e-005	0,0789201	
2	7,85556	-50,558	-0,00989127	0,00748681	0,0811973	
2	12,3249	-54,7801	-0,0102742	0,000576169	0,0623876	
2	8,2466	-54,5506	-0,0100139	0,00682407	0,0635735	
2	12,4695	-58,7389	-0,00939234	0,000352256	0,0447476	
2	7,82865	-57,8534	-0,00924097	0,00704044	0,0492879	
2	13,2516	-63,7681	-0,00640711	-0,000482966	0,0233903	
2	8,30306	-62,9336	-0,00677021	0,00485224	0,0271493	
2	17,2711	-57,9944	-0,00976272	-0,00656391	0,0487241	
2	16,5407	-61,5279	-0,00789693	-0,00468292	0,0332464	
2	19,9773	-59,456	-0,00922394	-0,010035	0,0430091	
2	20,5	-63	-0,00692273	-0,00873015	0,0280011	
2	20,6459	-55,1345	-0,0107465	-0,0120758	0,0617835	
2	16,361	-54,7866	-0,0105812	-0,00557411	0,0625667	
2	20,0107	-51,278	-0,0111182	-0,0113072	0,0784509	
2	16,3913	-49,5206	-0,0107142	-0,00578039	0,0857584	
2	20,5	-47	-0,0107861	-0,0121943	0,0971648	
2	16,5798	-45,716	-0,010021	-0,00611251	0,102512	
2	20,5	-43	-0,00970771	-0,0121334	0,114612	
2	16,5348	-42,75	-0,00903359	-0,00605415	0,115535	
2	20,7245	-39	-0,00822668	-0,0125296	0,132161	
2	16,5552	-39	-0,00752954	-0,00610306	0,132018	
2	20,7432	-35	-0,00648513	-0,0125938	0,14973	
2	16,5	-35	-0,00569526	-0,00610089	0,149657	
2	20,7839	-30,8541	-0,00463973	-0,0127565	0,167975	
2	16,5	-31	-0,00381948	-0,00616271	0,16731	
2	20,7485	-27	-0,00302456	-0,0127736	0,184943	
2	16,5	-27	-0,00203021	-0,00626294	0,18503	
2	20,7736	-22,8541	-0,00152556	-0,0129683	0,203261	
2	16,5	-23	-0,000523897	-0,00632216	0,20282	
2	20,7187	-19	-0,000592027	-0,0128115	0,220252	
2	16,5	-19	0,000558609	-0,00638221	0,220751	
2	20,7636	-14,8576	-5,06868e-005	-0,0127619	0,238598	
2	16,5	-15	0,00107595	-0,00621892	0,238662	
2	12,2883	-3,53551	-0,000787324	-3,59688e-005	0,288729	
2	8,33129	-3,17521	-0,000563963	0,00227551	0,291052	
2	8,5	-7	0,0017272	0,00422072	0,274172	
2	20,6155	-11,0284	-0,000238888	-0,0114968	0,255561	

