-2.172293189894247689e-01 5.444754442764947466e-01 8.499675282136230692e+00 -5.205742421088461924e+01
6.834517226688947567e+00 3.307615359655681431e+00 2.378233558819961915e-02 4.064485385432352018e+02
-3.702085912227630923e-04 9.279039502143860123e-04 4.404390975832939191e-05 7.925887063493395335e-01
