solid CATIA STL
  facet normal -1.000000e+000  0.000000e+000  0.000000e+000
    outer loop
      vertex  0.000000e+000  2.524449e+001 -6.222207e+000
      vertex  0.000000e+000  2.211258e+000 -3.629440e+000
      vertex  0.000000e+000  3.729726e+000 -2.037559e+000
    endloop
  endfacet
  facet normal -1.000000e+000  0.000000e+000  0.000000e+000
    outer loop
      vertex  0.000000e+000  2.600000e+001  0.000000e+000
      vertex  0.000000e+000  2.524449e+001 -6.222207e+000
      vertex  0.000000e+000  3.729726e+000 -2.037559e+000
    endloop
  endfacet
  facet normal -1.000000e+000  0.000000e+000  0.000000e+000
    outer loop
      vertex  0.000000e+000  2.600000e+001  0.000000e+000
      vertex  0.000000e+000  3.729726e+000 -2.037559e+000
      vertex  0.000000e+000  4.248816e+000  1.002855e-001
    endloop
  endfacet
  facet normal -1.000000e+000  0.000000e+000  0.000000e+000
    outer loop
      vertex  0.000000e+000  2.600000e+001  0.000000e+000
      vertex  0.000000e+000  4.248816e+000  1.002855e-001
      vertex  0.000000e+000  3.629440e+000  2.211258e+000
    endloop
  endfacet
  facet normal -1.000000e+000  0.000000e+000  0.000000e+000
    outer loop
      vertex  0.000000e+000  2.600000e+001  0.000000e+000
      vertex  0.000000e+000  3.629440e+000  2.211258e+000
      vertex  0.000000e+000  2.037559e+000  3.729726e+000
    endloop
  endfacet
  facet normal -1.000000e+000  0.000000e+000  0.000000e+000
    outer loop
      vertex  0.000000e+000  2.600000e+001  0.000000e+000
      vertex  0.000000e+000  2.037559e+000  3.729726e+000
      vertex  0.000000e+000  2.524449e+001  6.222207e+000
    endloop
  endfacet
  facet normal -1.000000e+000  0.000000e+000  0.000000e+000
    outer loop
      vertex  0.000000e+000 -2.524449e+001 -6.222207e+000
      vertex  0.000000e+000 -2.600000e+001 -8.362238e-015
      vertex  0.000000e+000 -4.248816e+000 -1.002855e-001
    endloop
  endfacet
  facet normal -1.000000e+000  0.000000e+000  -0.000000e+000
    outer loop
      vertex  0.000000e+000 -2.524449e+001 -6.222207e+000
      vertex  0.000000e+000 -4.248816e+000 -1.002855e-001
      vertex  0.000000e+000 -3.629440e+000 -2.211258e+000
    endloop
  endfacet
  facet normal -1.000000e+000  0.000000e+000  -0.000000e+000
    outer loop
      vertex  0.000000e+000 -2.524449e+001 -6.222207e+000
      vertex  0.000000e+000 -3.629440e+000 -2.211258e+000
      vertex  0.000000e+000 -2.037559e+000 -3.729726e+000
    endloop
  endfacet
  facet normal -1.000000e+000  0.000000e+000  0.000000e+000
    outer loop
      vertex  0.000000e+000 -2.524449e+001 -6.222207e+000
      vertex  0.000000e+000 -2.037559e+000 -3.729726e+000
      vertex  0.000000e+000 -3.133954e+000 -2.581043e+001
    endloop
  endfacet
  facet normal -1.000000e+000  0.000000e+000  0.000000e+000
    outer loop
      vertex  0.000000e+000 -2.524449e+001 -6.222207e+000
      vertex  0.000000e+000 -3.133954e+000 -2.581043e+001
      vertex  0.000000e+000 -9.219728e+000 -2.431042e+001
    endloop
  endfacet
  facet normal -1.000000e+000  0.000000e+000  0.000000e+000
    outer loop
      vertex  0.000000e+000 -2.524449e+001 -6.222207e+000
      vertex  0.000000e+000 -9.219728e+000 -2.431042e+001
      vertex  0.000000e+000 -1.476968e+001 -2.139758e+001
    endloop
  endfacet
  facet normal -1.000000e+000  0.000000e+000  0.000000e+000
    outer loop
      vertex  0.000000e+000 -2.524449e+001 -6.222207e+000
      vertex  0.000000e+000 -1.476968e+001 -2.139758e+001
      vertex  0.000000e+000 -1.946128e+001 -1.724119e+001
    endloop
  endfacet
  facet normal -1.000000e+000  0.000000e+000  0.000000e+000
    outer loop
      vertex  0.000000e+000 -2.524449e+001 -6.222207e+000
      vertex  0.000000e+000 -1.946128e+001 -1.724119e+001
      vertex  0.000000e+000 -2.302186e+001 -1.208280e+001
    endloop
  endfacet
  facet normal -1.000000e+000  0.000000e+000  -0.000000e+000
    outer loop
      vertex  0.000000e+000  1.002855e-001 -4.248816e+000
      vertex  0.000000e+000  2.211258e+000 -3.629440e+000
      vertex  0.000000e+000  2.524449e+001 -6.222207e+000
    endloop
  endfacet
  facet normal -1.000000e+000  -0.000000e+000  0.000000e+000
    outer loop
      vertex  0.000000e+000  1.002855e-001 -4.248816e+000
      vertex  0.000000e+000  2.524449e+001 -6.222207e+000
      vertex  0.000000e+000  2.302186e+001 -1.208280e+001
    endloop
  endfacet
  facet normal -1.000000e+000  -0.000000e+000  0.000000e+000
    outer loop
      vertex  0.000000e+000  1.002855e-001 -4.248816e+000
      vertex  0.000000e+000  2.302186e+001 -1.208280e+001
      vertex  0.000000e+000  1.946128e+001 -1.724119e+001
    endloop
  endfacet
  facet normal -1.000000e+000  -0.000000e+000  0.000000e+000
    outer loop
      vertex  0.000000e+000  1.002855e-001 -4.248816e+000
      vertex  0.000000e+000  1.946128e+001 -1.724119e+001
      vertex  0.000000e+000  1.476968e+001 -2.139758e+001
    endloop
  endfacet
  facet normal -1.000000e+000  -0.000000e+000  0.000000e+000
    outer loop
      vertex  0.000000e+000  1.002855e-001 -4.248816e+000
      vertex  0.000000e+000  1.476968e+001 -2.139758e+001
      vertex  0.000000e+000  9.219728e+000 -2.431042e+001
    endloop
  endfacet
  facet normal -1.000000e+000  -0.000000e+000  0.000000e+000
    outer loop
      vertex  0.000000e+000  1.002855e-001 -4.248816e+000
      vertex  0.000000e+000  9.219728e+000 -2.431042e+001
      vertex  0.000000e+000  3.133954e+000 -2.581043e+001
    endloop
  endfacet
  facet normal -1.000000e+000  0.000000e+000  0.000000e+000
    outer loop
      vertex  0.000000e+000  1.002855e-001 -4.248816e+000
      vertex  0.000000e+000  3.133954e+000 -2.581043e+001
      vertex  0.000000e+000 -3.133954e+000 -2.581043e+001
    endloop
  endfacet
  facet normal -1.000000e+000  0.000000e+000  0.000000e+000
    outer loop
      vertex  0.000000e+000  1.002855e-001 -4.248816e+000
      vertex  0.000000e+000 -3.133954e+000 -2.581043e+001
      vertex  0.000000e+000 -2.037559e+000 -3.729726e+000
    endloop
  endfacet
  facet normal -1.000000e+000  0.000000e+000  0.000000e+000
    outer loop
      vertex  0.000000e+000  2.037559e+000  3.729726e+000
      vertex  0.000000e+000 -1.002855e-001  4.248816e+000
      vertex  0.000000e+000 -3.133954e+000  2.581043e+001
    endloop
  endfacet
  facet normal -1.000000e+000  0.000000e+000  0.000000e+000
    outer loop
      vertex  0.000000e+000  2.037559e+000  3.729726e+000
      vertex  0.000000e+000 -3.133954e+000  2.581043e+001
      vertex  0.000000e+000  3.133954e+000  2.581043e+001
    endloop
  endfacet
  facet normal -1.000000e+000  0.000000e+000  -0.000000e+000
    outer loop
      vertex  0.000000e+000  2.037559e+000  3.729726e+000
      vertex  0.000000e+000  3.133954e+000  2.581043e+001
      vertex  0.000000e+000  9.219728e+000  2.431042e+001
    endloop
  endfacet
  facet normal -1.000000e+000  0.000000e+000  -0.000000e+000
    outer loop
      vertex  0.000000e+000  2.037559e+000  3.729726e+000
      vertex  0.000000e+000  9.219728e+000  2.431042e+001
      vertex  0.000000e+000  1.476968e+001  2.139758e+001
    endloop
  endfacet
  facet normal -1.000000e+000  0.000000e+000  -0.000000e+000
    outer loop
      vertex  0.000000e+000  2.037559e+000  3.729726e+000
      vertex  0.000000e+000  1.476968e+001  2.139758e+001
      vertex  0.000000e+000  1.946128e+001  1.724119e+001
    endloop
  endfacet
  facet normal -1.000000e+000  0.000000e+000  -0.000000e+000
    outer loop
      vertex  0.000000e+000  2.037559e+000  3.729726e+000
      vertex  0.000000e+000  1.946128e+001  1.724119e+001
      vertex  0.000000e+000  2.302186e+001  1.208280e+001
    endloop
  endfacet
  facet normal -1.000000e+000  0.000000e+000  -0.000000e+000
    outer loop
      vertex  0.000000e+000  2.037559e+000  3.729726e+000
      vertex  0.000000e+000  2.302186e+001  1.208280e+001
      vertex  0.000000e+000  2.524449e+001  6.222207e+000
    endloop
  endfacet
  facet normal -1.000000e+000  0.000000e+000  0.000000e+000
    outer loop
      vertex  0.000000e+000 -1.002855e-001  4.248816e+000
      vertex  0.000000e+000 -2.524449e+001  6.222207e+000
      vertex  0.000000e+000 -2.302186e+001  1.208280e+001
    endloop
  endfacet
  facet normal -1.000000e+000  0.000000e+000  0.000000e+000
    outer loop
      vertex  0.000000e+000 -1.002855e-001  4.248816e+000
      vertex  0.000000e+000 -2.302186e+001  1.208280e+001
      vertex  0.000000e+000 -1.946128e+001  1.724119e+001
    endloop
  endfacet
  facet normal -1.000000e+000  0.000000e+000  0.000000e+000
    outer loop
      vertex  0.000000e+000 -1.002855e-001  4.248816e+000
      vertex  0.000000e+000 -1.946128e+001  1.724119e+001
      vertex  0.000000e+000 -1.476968e+001  2.139758e+001
    endloop
  endfacet
  facet normal -1.000000e+000  0.000000e+000  0.000000e+000
    outer loop
      vertex  0.000000e+000 -1.002855e-001  4.248816e+000
      vertex  0.000000e+000 -1.476968e+001  2.139758e+001
      vertex  0.000000e+000 -9.219728e+000  2.431042e+001
    endloop
  endfacet
  facet normal -1.000000e+000  0.000000e+000  0.000000e+000
    outer loop
      vertex  0.000000e+000 -1.002855e-001  4.248816e+000
      vertex  0.000000e+000 -9.219728e+000  2.431042e+001
      vertex  0.000000e+000 -3.133954e+000  2.581043e+001
    endloop
  endfacet
  facet normal -1.000000e+000  0.000000e+000  -0.000000e+000
    outer loop
      vertex  0.000000e+000 -2.600000e+001 -8.362238e-015
      vertex  0.000000e+000 -2.524449e+001  6.222207e+000
      vertex  0.000000e+000 -1.002855e-001  4.248816e+000
    endloop
  endfacet
  facet normal -9.999999e-001  0.000000e+000  0.000000e+000
    outer loop
      vertex  0.000000e+000 -2.600000e+001 -8.362238e-015
      vertex  0.000000e+000 -1.002855e-001  4.248816e+000
      vertex  0.000000e+000 -2.211258e+000  3.629440e+000
    endloop
  endfacet
  facet normal -1.000000e+000  0.000000e+000  0.000000e+000
    outer loop
      vertex  0.000000e+000 -2.600000e+001 -8.362238e-015
      vertex  0.000000e+000 -2.211258e+000  3.629440e+000
      vertex  0.000000e+000 -3.729726e+000  2.037559e+000
    endloop
  endfacet
  facet normal -1.000000e+000  0.000000e+000  0.000000e+000
    outer loop
      vertex  0.000000e+000 -2.600000e+001 -8.362238e-015
      vertex  0.000000e+000 -3.729726e+000  2.037559e+000
      vertex  0.000000e+000 -4.248816e+000 -1.002855e-001
    endloop
  endfacet
  facet normal  1.000000e+000  -0.000000e+000  0.000000e+000
    outer loop
      vertex  8.000000e+000  3.729726e+000 -2.037559e+000
      vertex  8.000000e+000  2.211258e+000 -3.629440e+000
      vertex  8.000000e+000  2.524449e+001 -6.222207e+000
    endloop
  endfacet
  facet normal  1.000000e+000  0.000000e+000  0.000000e+000
    outer loop
      vertex  8.000000e+000  2.600000e+001  0.000000e+000
      vertex  8.000000e+000  2.524449e+001  6.222207e+000
      vertex  8.000000e+000  2.037559e+000  3.729726e+000
    endloop
  endfacet
  facet normal  1.000000e+000  0.000000e+000  0.000000e+000
    outer loop
      vertex  8.000000e+000  2.600000e+001  0.000000e+000
      vertex  8.000000e+000  2.037559e+000  3.729726e+000
      vertex  8.000000e+000  3.629440e+000  2.211258e+000
    endloop
  endfacet
  facet normal  1.000000e+000  0.000000e+000  0.000000e+000
    outer loop
      vertex  8.000000e+000  2.600000e+001  0.000000e+000
      vertex  8.000000e+000  3.629440e+000  2.211258e+000
      vertex  8.000000e+000  4.248816e+000  1.002855e-001
    endloop
  endfacet
  facet normal  1.000000e+000  0.000000e+000  0.000000e+000
    outer loop
      vertex  8.000000e+000  2.600000e+001  0.000000e+000
      vertex  8.000000e+000  4.248816e+000  1.002855e-001
      vertex  8.000000e+000  3.729726e+000 -2.037559e+000
    endloop
  endfacet
  facet normal  1.000000e+000  -0.000000e+000  0.000000e+000
    outer loop
      vertex  8.000000e+000  2.600000e+001  0.000000e+000
      vertex  8.000000e+000  3.729726e+000 -2.037559e+000
      vertex  8.000000e+000  2.524449e+001 -6.222207e+000
    endloop
  endfacet
  facet normal  1.000000e+000  -0.000000e+000  -0.000000e+000
    outer loop
      vertex  8.000000e+000 -2.524449e+001 -6.222207e+000
      vertex  8.000000e+000 -2.302186e+001 -1.208280e+001
      vertex  8.000000e+000 -1.946128e+001 -1.724119e+001
    endloop
  endfacet
  facet normal  9.999999e-001  -0.000000e+000  -0.000000e+000
    outer loop
      vertex  8.000000e+000 -2.524449e+001 -6.222207e+000
      vertex  8.000000e+000 -1.946128e+001 -1.724119e+001
      vertex  8.000000e+000 -1.476968e+001 -2.139758e+001
    endloop
  endfacet
  facet normal  1.000000e+000  -0.000000e+000  -0.000000e+000
    outer loop
      vertex  8.000000e+000 -2.524449e+001 -6.222207e+000
      vertex  8.000000e+000 -1.476968e+001 -2.139758e+001
      vertex  8.000000e+000 -9.219728e+000 -2.431042e+001
    endloop
  endfacet
  facet normal  1.000000e+000  -0.000000e+000  -0.000000e+000
    outer loop
      vertex  8.000000e+000 -2.524449e+001 -6.222207e+000
      vertex  8.000000e+000 -9.219728e+000 -2.431042e+001
      vertex  8.000000e+000 -3.133954e+000 -2.581043e+001
    endloop
  endfacet
  facet normal  1.000000e+000  0.000000e+000  -0.000000e+000
    outer loop
      vertex  8.000000e+000 -2.524449e+001 -6.222207e+000
      vertex  8.000000e+000 -3.133954e+000 -2.581043e+001
      vertex  8.000000e+000 -2.037559e+000 -3.729726e+000
    endloop
  endfacet
  facet normal  1.000000e+000  0.000000e+000  0.000000e+000
    outer loop
      vertex  8.000000e+000 -2.524449e+001 -6.222207e+000
      vertex  8.000000e+000 -2.037559e+000 -3.729726e+000
      vertex  8.000000e+000 -3.629440e+000 -2.211258e+000
    endloop
  endfacet
  facet normal  1.000000e+000  0.000000e+000  0.000000e+000
    outer loop
      vertex  8.000000e+000 -2.524449e+001 -6.222207e+000
      vertex  8.000000e+000 -3.629440e+000 -2.211258e+000
      vertex  8.000000e+000 -4.248816e+000 -1.002855e-001
    endloop
  endfacet
  facet normal  1.000000e+000  0.000000e+000  0.000000e+000
    outer loop
      vertex  8.000000e+000 -2.524449e+001 -6.222207e+000
      vertex  8.000000e+000 -4.248816e+000 -1.002855e-001
      vertex  8.000000e+000 -2.600000e+001 -8.362238e-015
    endloop
  endfacet
  facet normal  1.000000e+000  0.000000e+000  0.000000e+000
    outer loop
      vertex  8.000000e+000  1.002855e-001 -4.248816e+000
      vertex  8.000000e+000 -2.037559e+000 -3.729726e+000
      vertex  8.000000e+000 -3.133954e+000 -2.581043e+001
    endloop
  endfacet
  facet normal  1.000000e+000  0.000000e+000  0.000000e+000
    outer loop
      vertex  8.000000e+000  1.002855e-001 -4.248816e+000
      vertex  8.000000e+000 -3.133954e+000 -2.581043e+001
      vertex  8.000000e+000  3.133954e+000 -2.581043e+001
    endloop
  endfacet
  facet normal  1.000000e+000  0.000000e+000  -0.000000e+000
    outer loop
      vertex  8.000000e+000  1.002855e-001 -4.248816e+000
      vertex  8.000000e+000  3.133954e+000 -2.581043e+001
      vertex  8.000000e+000  9.219728e+000 -2.431042e+001
    endloop
  endfacet
  facet normal  1.000000e+000  0.000000e+000  -0.000000e+000
    outer loop
      vertex  8.000000e+000  1.002855e-001 -4.248816e+000
      vertex  8.000000e+000  9.219728e+000 -2.431042e+001
      vertex  8.000000e+000  1.476968e+001 -2.139758e+001
    endloop
  endfacet
  facet normal  1.000000e+000  0.000000e+000  -0.000000e+000
    outer loop
      vertex  8.000000e+000  1.002855e-001 -4.248816e+000
      vertex  8.000000e+000  1.476968e+001 -2.139758e+001
      vertex  8.000000e+000  1.946128e+001 -1.724119e+001
    endloop
  endfacet
  facet normal  1.000000e+000  0.000000e+000  -0.000000e+000
    outer loop
      vertex  8.000000e+000  1.002855e-001 -4.248816e+000
      vertex  8.000000e+000  1.946128e+001 -1.724119e+001
      vertex  8.000000e+000  2.302186e+001 -1.208280e+001
    endloop
  endfacet
  facet normal  1.000000e+000  0.000000e+000  -0.000000e+000
    outer loop
      vertex  8.000000e+000  1.002855e-001 -4.248816e+000
      vertex  8.000000e+000  2.302186e+001 -1.208280e+001
      vertex  8.000000e+000  2.524449e+001 -6.222207e+000
    endloop
  endfacet
  facet normal  1.000000e+000  0.000000e+000  0.000000e+000
    outer loop
      vertex  8.000000e+000  1.002855e-001 -4.248816e+000
      vertex  8.000000e+000  2.524449e+001 -6.222207e+000
      vertex  8.000000e+000  2.211258e+000 -3.629440e+000
    endloop
  endfacet
  facet normal  1.000000e+000  0.000000e+000  0.000000e+000
    outer loop
      vertex  8.000000e+000  2.037559e+000  3.729726e+000
      vertex  8.000000e+000  2.524449e+001  6.222207e+000
      vertex  8.000000e+000  2.302186e+001  1.208280e+001
    endloop
  endfacet
  facet normal  1.000000e+000  0.000000e+000  0.000000e+000
    outer loop
      vertex  8.000000e+000  2.037559e+000  3.729726e+000
      vertex  8.000000e+000  2.302186e+001  1.208280e+001
      vertex  8.000000e+000  1.946128e+001  1.724119e+001
    endloop
  endfacet
  facet normal  1.000000e+000  0.000000e+000  0.000000e+000
    outer loop
      vertex  8.000000e+000  2.037559e+000  3.729726e+000
      vertex  8.000000e+000  1.946128e+001  1.724119e+001
      vertex  8.000000e+000  1.476968e+001  2.139758e+001
    endloop
  endfacet
  facet normal  1.000000e+000  0.000000e+000  0.000000e+000
    outer loop
      vertex  8.000000e+000  2.037559e+000  3.729726e+000
      vertex  8.000000e+000  1.476968e+001  2.139758e+001
      vertex  8.000000e+000  9.219728e+000  2.431042e+001
    endloop
  endfacet
  facet normal  1.000000e+000  0.000000e+000  0.000000e+000
    outer loop
      vertex  8.000000e+000  2.037559e+000  3.729726e+000
      vertex  8.000000e+000  9.219728e+000  2.431042e+001
      vertex  8.000000e+000  3.133954e+000  2.581043e+001
    endloop
  endfacet
  facet normal  1.000000e+000  0.000000e+000  0.000000e+000
    outer loop
      vertex  8.000000e+000  2.037559e+000  3.729726e+000
      vertex  8.000000e+000  3.133954e+000  2.581043e+001
      vertex  8.000000e+000 -3.133954e+000  2.581043e+001
    endloop
  endfacet
  facet normal  9.999999e-001  0.000000e+000  0.000000e+000
    outer loop
      vertex  8.000000e+000  2.037559e+000  3.729726e+000
      vertex  8.000000e+000 -3.133954e+000  2.581043e+001
      vertex  8.000000e+000 -1.002855e-001  4.248816e+000
    endloop
  endfacet
  facet normal  1.000000e+000  0.000000e+000  0.000000e+000
    outer loop
      vertex  8.000000e+000 -1.002855e-001  4.248816e+000
      vertex  8.000000e+000 -3.133954e+000  2.581043e+001
      vertex  8.000000e+000 -9.219728e+000  2.431042e+001
    endloop
  endfacet
  facet normal  1.000000e+000  0.000000e+000  0.000000e+000
    outer loop
      vertex  8.000000e+000 -1.002855e-001  4.248816e+000
      vertex  8.000000e+000 -9.219728e+000  2.431042e+001
      vertex  8.000000e+000 -1.476968e+001  2.139758e+001
    endloop
  endfacet
  facet normal  1.000000e+000  0.000000e+000  0.000000e+000
    outer loop
      vertex  8.000000e+000 -1.002855e-001  4.248816e+000
      vertex  8.000000e+000 -1.476968e+001  2.139758e+001
      vertex  8.000000e+000 -1.946128e+001  1.724119e+001
    endloop
  endfacet
  facet normal  1.000000e+000  0.000000e+000  0.000000e+000
    outer loop
      vertex  8.000000e+000 -1.002855e-001  4.248816e+000
      vertex  8.000000e+000 -1.946128e+001  1.724119e+001
      vertex  8.000000e+000 -2.302186e+001  1.208280e+001
    endloop
  endfacet
  facet normal  1.000000e+000  0.000000e+000  0.000000e+000
    outer loop
      vertex  8.000000e+000 -1.002855e-001  4.248816e+000
      vertex  8.000000e+000 -2.302186e+001  1.208280e+001
      vertex  8.000000e+000 -2.524449e+001  6.222207e+000
    endloop
  endfacet
  facet normal  1.000000e+000  0.000000e+000  -0.000000e+000
    outer loop
      vertex  8.000000e+000 -2.600000e+001 -8.362238e-015
      vertex  8.000000e+000 -4.248816e+000 -1.002855e-001
      vertex  8.000000e+000 -3.729726e+000  2.037559e+000
    endloop
  endfacet
  facet normal  1.000000e+000  0.000000e+000  -0.000000e+000
    outer loop
      vertex  8.000000e+000 -2.600000e+001 -8.362238e-015
      vertex  8.000000e+000 -3.729726e+000  2.037559e+000
      vertex  8.000000e+000 -2.211258e+000  3.629440e+000
    endloop
  endfacet
  facet normal  1.000000e+000  0.000000e+000  -0.000000e+000
    outer loop
      vertex  8.000000e+000 -2.600000e+001 -8.362238e-015
      vertex  8.000000e+000 -2.211258e+000  3.629440e+000
      vertex  8.000000e+000 -1.002855e-001  4.248816e+000
    endloop
  endfacet
  facet normal  1.000000e+000  0.000000e+000  0.000000e+000
    outer loop
      vertex  8.000000e+000 -2.600000e+001 -8.362238e-015
      vertex  8.000000e+000 -1.002855e-001  4.248816e+000
      vertex  8.000000e+000 -2.524449e+001  6.222207e+000
    endloop
  endfacet
  facet normal  -0.000000e+000  6.902246e-001  7.235952e-001
    outer loop
      vertex  8.000000e+000 -2.037559e+000 -3.729726e+000
      vertex  0.000000e+000 -3.629440e+000 -2.211258e+000
      vertex  8.000000e+000 -3.629440e+000 -2.211258e+000
    endloop
  endfacet
  facet normal  0.000000e+000  9.595497e-001  2.815395e-001
    outer loop
      vertex  8.000000e+000 -3.629440e+000 -2.211258e+000
      vertex  0.000000e+000 -3.629440e+000 -2.211258e+000
      vertex  0.000000e+000 -4.248816e+000 -1.002855e-001
    endloop
  endfacet
  facet normal  -0.000000e+000  9.595497e-001  2.815395e-001
    outer loop
      vertex  8.000000e+000 -3.629440e+000 -2.211258e+000
      vertex  0.000000e+000 -4.248816e+000 -1.002855e-001
      vertex  8.000000e+000 -4.248816e+000 -1.002855e-001
    endloop
  endfacet
  facet normal  0.000000e+000  9.717641e-001 -2.359544e-001
    outer loop
      vertex  8.000000e+000 -4.248816e+000 -1.002855e-001
      vertex  0.000000e+000 -4.248816e+000 -1.002855e-001
      vertex  0.000000e+000 -3.729726e+000  2.037559e+000
    endloop
  endfacet
  facet normal  0.000000e+000  9.717641e-001 -2.359544e-001
    outer loop
      vertex  8.000000e+000 -4.248816e+000 -1.002855e-001
      vertex  0.000000e+000 -3.729726e+000  2.037559e+000
      vertex  8.000000e+000 -3.729726e+000  2.037559e+000
    endloop
  endfacet
  facet normal  0.000000e+000  6.902246e-001  7.235952e-001
    outer loop
      vertex  0.000000e+000 -3.629440e+000 -2.211258e+000
      vertex  8.000000e+000 -2.037559e+000 -3.729726e+000
      vertex  0.000000e+000 -2.037559e+000 -3.729726e+000
    endloop
  endfacet
  facet normal  -0.000000e+000  2.359544e-001  9.717641e-001
    outer loop
      vertex  0.000000e+000 -2.037559e+000 -3.729726e+000
      vertex  8.000000e+000 -2.037559e+000 -3.729726e+000
      vertex  8.000000e+000  1.002855e-001 -4.248816e+000
    endloop
  endfacet
  facet normal  0.000000e+000  2.359544e-001  9.717641e-001
    outer loop
      vertex  0.000000e+000 -2.037559e+000 -3.729726e+000
      vertex  8.000000e+000  1.002855e-001 -4.248816e+000
      vertex  0.000000e+000  1.002855e-001 -4.248816e+000
    endloop
  endfacet
  facet normal  0.000000e+000 -2.815395e-001  9.595497e-001
    outer loop
      vertex  0.000000e+000  1.002855e-001 -4.248816e+000
      vertex  8.000000e+000  1.002855e-001 -4.248816e+000
      vertex  8.000000e+000  2.211258e+000 -3.629440e+000
    endloop
  endfacet
  facet normal  0.000000e+000 -2.815395e-001  9.595497e-001
    outer loop
      vertex  0.000000e+000  1.002855e-001 -4.248816e+000
      vertex  8.000000e+000  2.211258e+000 -3.629440e+000
      vertex  0.000000e+000  2.211258e+000 -3.629440e+000
    endloop
  endfacet
  facet normal  0.000000e+000 -7.235952e-001  6.902246e-001
    outer loop
      vertex  0.000000e+000  2.211258e+000 -3.629440e+000
      vertex  8.000000e+000  2.211258e+000 -3.629440e+000
      vertex  8.000000e+000  3.729726e+000 -2.037559e+000
    endloop
  endfacet
  facet normal  0.000000e+000 -7.235952e-001  6.902246e-001
    outer loop
      vertex  0.000000e+000  2.211258e+000 -3.629440e+000
      vertex  8.000000e+000  3.729726e+000 -2.037559e+000
      vertex  0.000000e+000  3.729726e+000 -2.037559e+000
    endloop
  endfacet
  facet normal  0.000000e+000 -6.902246e-001 -7.235952e-001
    outer loop
      vertex  8.000000e+000  2.037559e+000  3.729726e+000
      vertex  0.000000e+000  3.629440e+000  2.211258e+000
      vertex  8.000000e+000  3.629440e+000  2.211258e+000
    endloop
  endfacet
  facet normal  -0.000000e+000 -9.595497e-001 -2.815395e-001
    outer loop
      vertex  8.000000e+000  3.629440e+000  2.211258e+000
      vertex  0.000000e+000  3.629440e+000  2.211258e+000
      vertex  0.000000e+000  4.248816e+000  1.002855e-001
    endloop
  endfacet
  facet normal  0.000000e+000 -9.595497e-001 -2.815395e-001
    outer loop
      vertex  8.000000e+000  3.629440e+000  2.211258e+000
      vertex  0.000000e+000  4.248816e+000  1.002855e-001
      vertex  8.000000e+000  4.248816e+000  1.002855e-001
    endloop
  endfacet
  facet normal  0.000000e+000 -9.717641e-001  2.359544e-001
    outer loop
      vertex  8.000000e+000  4.248816e+000  1.002855e-001
      vertex  0.000000e+000  4.248816e+000  1.002855e-001
      vertex  0.000000e+000  3.729726e+000 -2.037559e+000
    endloop
  endfacet
  facet normal  0.000000e+000 -9.717641e-001  2.359544e-001
    outer loop
      vertex  8.000000e+000  4.248816e+000  1.002855e-001
      vertex  0.000000e+000  3.729726e+000 -2.037559e+000
      vertex  8.000000e+000  3.729726e+000 -2.037559e+000
    endloop
  endfacet
  facet normal  -0.000000e+000 -6.902246e-001 -7.235952e-001
    outer loop
      vertex  0.000000e+000  3.629440e+000  2.211258e+000
      vertex  8.000000e+000  2.037559e+000  3.729726e+000
      vertex  0.000000e+000  2.037559e+000  3.729726e+000
    endloop
  endfacet
  facet normal  0.000000e+000 -2.359544e-001 -9.717641e-001
    outer loop
      vertex  0.000000e+000  2.037559e+000  3.729726e+000
      vertex  8.000000e+000  2.037559e+000  3.729726e+000
      vertex  8.000000e+000 -1.002855e-001  4.248816e+000
    endloop
  endfacet
  facet normal  -0.000000e+000 -2.359544e-001 -9.717641e-001
    outer loop
      vertex  0.000000e+000  2.037559e+000  3.729726e+000
      vertex  8.000000e+000 -1.002855e-001  4.248816e+000
      vertex  0.000000e+000 -1.002855e-001  4.248816e+000
    endloop
  endfacet
  facet normal  0.000000e+000  2.815395e-001 -9.595497e-001
    outer loop
      vertex  0.000000e+000 -1.002855e-001  4.248816e+000
      vertex  8.000000e+000 -1.002855e-001  4.248816e+000
      vertex  8.000000e+000 -2.211258e+000  3.629440e+000
    endloop
  endfacet
  facet normal  0.000000e+000  2.815395e-001 -9.595497e-001
    outer loop
      vertex  0.000000e+000 -1.002855e-001  4.248816e+000
      vertex  8.000000e+000 -2.211258e+000  3.629440e+000
      vertex  0.000000e+000 -2.211258e+000  3.629440e+000
    endloop
  endfacet
  facet normal  0.000000e+000  7.235952e-001 -6.902246e-001
    outer loop
      vertex  0.000000e+000 -2.211258e+000  3.629440e+000
      vertex  8.000000e+000 -2.211258e+000  3.629440e+000
      vertex  8.000000e+000 -3.729726e+000  2.037559e+000
    endloop
  endfacet
  facet normal  0.000000e+000  7.235952e-001 -6.902246e-001
    outer loop
      vertex  0.000000e+000 -2.211258e+000  3.629440e+000
      vertex  8.000000e+000 -3.729726e+000  2.037559e+000
      vertex  0.000000e+000 -3.729726e+000  2.037559e+000
    endloop
  endfacet
  facet normal  0.000000e+000  9.927089e-001 -1.205366e-001
    outer loop
      vertex  0.000000e+000  2.600000e+001  0.000000e+000
      vertex  8.000000e+000  2.600000e+001  0.000000e+000
      vertex  0.000000e+000  2.524449e+001 -6.222207e+000
    endloop
  endfacet
  facet normal  0.000000e+000  9.927089e-001 -1.205366e-001
    outer loop
      vertex  0.000000e+000  2.524449e+001 -6.222207e+000
      vertex  8.000000e+000  2.600000e+001  0.000000e+000
      vertex  8.000000e+000  2.524449e+001 -6.222207e+000
    endloop
  endfacet
  facet normal  0.000000e+000  9.350162e-001 -3.546050e-001
    outer loop
      vertex  0.000000e+000  2.524449e+001 -6.222207e+000
      vertex  8.000000e+000  2.524449e+001 -6.222207e+000
      vertex  0.000000e+000  2.302186e+001 -1.208280e+001
    endloop
  endfacet
  facet normal  0.000000e+000  9.350162e-001 -3.546050e-001
    outer loop
      vertex  0.000000e+000  2.302186e+001 -1.208280e+001
      vertex  8.000000e+000  2.524449e+001 -6.222207e+000
      vertex  8.000000e+000  2.302186e+001 -1.208280e+001
    endloop
  endfacet
  facet normal  0.000000e+000  8.229839e-001 -5.680647e-001
    outer loop
      vertex  0.000000e+000  2.302186e+001 -1.208280e+001
      vertex  8.000000e+000  2.302186e+001 -1.208280e+001
      vertex  0.000000e+000  1.946128e+001 -1.724119e+001
    endloop
  endfacet
  facet normal  0.000000e+000  8.229839e-001 -5.680647e-001
    outer loop
      vertex  0.000000e+000  1.946128e+001 -1.724119e+001
      vertex  8.000000e+000  2.302186e+001 -1.208280e+001
      vertex  8.000000e+000  1.946128e+001 -1.724119e+001
    endloop
  endfacet
  facet normal  0.000000e+000  6.631227e-001 -7.485107e-001
    outer loop
      vertex  0.000000e+000  1.946128e+001 -1.724119e+001
      vertex  8.000000e+000  1.946128e+001 -1.724119e+001
      vertex  0.000000e+000  1.476968e+001 -2.139758e+001
    endloop
  endfacet
  facet normal  0.000000e+000  6.631227e-001 -7.485107e-001
    outer loop
      vertex  0.000000e+000  1.476968e+001 -2.139758e+001
      vertex  8.000000e+000  1.946128e+001 -1.724119e+001
      vertex  8.000000e+000  1.476968e+001 -2.139758e+001
    endloop
  endfacet
  facet normal  0.000000e+000  4.647231e-001 -8.854560e-001
    outer loop
      vertex  0.000000e+000  1.476968e+001 -2.139758e+001
      vertex  8.000000e+000  1.476968e+001 -2.139758e+001
      vertex  0.000000e+000  9.219728e+000 -2.431042e+001
    endloop
  endfacet
  facet normal  0.000000e+000  4.647231e-001 -8.854560e-001
    outer loop
      vertex  0.000000e+000  9.219728e+000 -2.431042e+001
      vertex  8.000000e+000  1.476968e+001 -2.139758e+001
      vertex  8.000000e+000  9.219728e+000 -2.431042e+001
    endloop
  endfacet
  facet normal  0.000000e+000  2.393155e-001 -9.709418e-001
    outer loop
      vertex  0.000000e+000  9.219728e+000 -2.431042e+001
      vertex  8.000000e+000  9.219728e+000 -2.431042e+001
      vertex  0.000000e+000  3.133954e+000 -2.581043e+001
    endloop
  endfacet
  facet normal  0.000000e+000  2.393155e-001 -9.709418e-001
    outer loop
      vertex  0.000000e+000  3.133954e+000 -2.581043e+001
      vertex  8.000000e+000  9.219728e+000 -2.431042e+001
      vertex  8.000000e+000  3.133954e+000 -2.581043e+001
    endloop
  endfacet
  facet normal  -0.000000e+000  0.000000e+000 -1.000000e+000
    outer loop
      vertex  0.000000e+000  3.133954e+000 -2.581043e+001
      vertex  8.000000e+000  3.133954e+000 -2.581043e+001
      vertex  0.000000e+000 -3.133954e+000 -2.581043e+001
    endloop
  endfacet
  facet normal  0.000000e+000  0.000000e+000 -1.000000e+000
    outer loop
      vertex  0.000000e+000 -3.133954e+000 -2.581043e+001
      vertex  8.000000e+000  3.133954e+000 -2.581043e+001
      vertex  8.000000e+000 -3.133954e+000 -2.581043e+001
    endloop
  endfacet
  facet normal  -0.000000e+000 -2.393155e-001 -9.709418e-001
    outer loop
      vertex  0.000000e+000 -3.133954e+000 -2.581043e+001
      vertex  8.000000e+000 -3.133954e+000 -2.581043e+001
      vertex  0.000000e+000 -9.219728e+000 -2.431042e+001
    endloop
  endfacet
  facet normal  0.000000e+000 -2.393155e-001 -9.709418e-001
    outer loop
      vertex  0.000000e+000 -9.219728e+000 -2.431042e+001
      vertex  8.000000e+000 -3.133954e+000 -2.581043e+001
      vertex  8.000000e+000 -9.219728e+000 -2.431042e+001
    endloop
  endfacet
  facet normal  -0.000000e+000 -4.647231e-001 -8.854560e-001
    outer loop
      vertex  0.000000e+000 -9.219728e+000 -2.431042e+001
      vertex  8.000000e+000 -9.219728e+000 -2.431042e+001
      vertex  0.000000e+000 -1.476968e+001 -2.139758e+001
    endloop
  endfacet
  facet normal  0.000000e+000 -4.647231e-001 -8.854560e-001
    outer loop
      vertex  0.000000e+000 -1.476968e+001 -2.139758e+001
      vertex  8.000000e+000 -9.219728e+000 -2.431042e+001
      vertex  8.000000e+000 -1.476968e+001 -2.139758e+001
    endloop
  endfacet
  facet normal  -0.000000e+000 -6.631227e-001 -7.485107e-001
    outer loop
      vertex  0.000000e+000 -1.476968e+001 -2.139758e+001
      vertex  8.000000e+000 -1.476968e+001 -2.139758e+001
      vertex  0.000000e+000 -1.946128e+001 -1.724119e+001
    endloop
  endfacet
  facet normal  0.000000e+000 -6.631227e-001 -7.485107e-001
    outer loop
      vertex  0.000000e+000 -1.946128e+001 -1.724119e+001
      vertex  8.000000e+000 -1.476968e+001 -2.139758e+001
      vertex  8.000000e+000 -1.946128e+001 -1.724119e+001
    endloop
  endfacet
  facet normal  -0.000000e+000 -8.229839e-001 -5.680647e-001
    outer loop
      vertex  0.000000e+000 -1.946128e+001 -1.724119e+001
      vertex  8.000000e+000 -1.946128e+001 -1.724119e+001
      vertex  0.000000e+000 -2.302186e+001 -1.208280e+001
    endloop
  endfacet
  facet normal  0.000000e+000 -8.229839e-001 -5.680647e-001
    outer loop
      vertex  0.000000e+000 -2.302186e+001 -1.208280e+001
      vertex  8.000000e+000 -1.946128e+001 -1.724119e+001
      vertex  8.000000e+000 -2.302186e+001 -1.208280e+001
    endloop
  endfacet
  facet normal  -0.000000e+000 -9.350162e-001 -3.546050e-001
    outer loop
      vertex  0.000000e+000 -2.302186e+001 -1.208280e+001
      vertex  8.000000e+000 -2.302186e+001 -1.208280e+001
      vertex  0.000000e+000 -2.524449e+001 -6.222207e+000
    endloop
  endfacet
  facet normal  0.000000e+000 -9.350162e-001 -3.546050e-001
    outer loop
      vertex  0.000000e+000 -2.524449e+001 -6.222207e+000
      vertex  8.000000e+000 -2.302186e+001 -1.208280e+001
      vertex  8.000000e+000 -2.524449e+001 -6.222207e+000
    endloop
  endfacet
  facet normal  -0.000000e+000 -9.927089e-001 -1.205366e-001
    outer loop
      vertex  0.000000e+000 -2.524449e+001 -6.222207e+000
      vertex  8.000000e+000 -2.524449e+001 -6.222207e+000
      vertex  0.000000e+000 -2.600000e+001 -8.362238e-015
    endloop
  endfacet
  facet normal  0.000000e+000 -9.927089e-001 -1.205366e-001
    outer loop
      vertex  0.000000e+000 -2.600000e+001 -8.362238e-015
      vertex  8.000000e+000 -2.524449e+001 -6.222207e+000
      vertex  8.000000e+000 -2.600000e+001 -8.362238e-015
    endloop
  endfacet
  facet normal  0.000000e+000 -9.927089e-001  1.205366e-001
    outer loop
      vertex  0.000000e+000 -2.600000e+001 -8.362238e-015
      vertex  8.000000e+000 -2.600000e+001 -8.362238e-015
      vertex  0.000000e+000 -2.524449e+001  6.222207e+000
    endloop
  endfacet
  facet normal  0.000000e+000 -9.927089e-001  1.205366e-001
    outer loop
      vertex  0.000000e+000 -2.524449e+001  6.222207e+000
      vertex  8.000000e+000 -2.600000e+001 -8.362238e-015
      vertex  8.000000e+000 -2.524449e+001  6.222207e+000
    endloop
  endfacet
  facet normal  0.000000e+000 -9.350162e-001  3.546050e-001
    outer loop
      vertex  0.000000e+000 -2.524449e+001  6.222207e+000
      vertex  8.000000e+000 -2.524449e+001  6.222207e+000
      vertex  0.000000e+000 -2.302186e+001  1.208280e+001
    endloop
  endfacet
  facet normal  0.000000e+000 -9.350162e-001  3.546050e-001
    outer loop
      vertex  0.000000e+000 -2.302186e+001  1.208280e+001
      vertex  8.000000e+000 -2.524449e+001  6.222207e+000
      vertex  8.000000e+000 -2.302186e+001  1.208280e+001
    endloop
  endfacet
  facet normal  0.000000e+000 -8.229839e-001  5.680647e-001
    outer loop
      vertex  0.000000e+000 -2.302186e+001  1.208280e+001
      vertex  8.000000e+000 -2.302186e+001  1.208280e+001
      vertex  0.000000e+000 -1.946128e+001  1.724119e+001
    endloop
  endfacet
  facet normal  0.000000e+000 -8.229839e-001  5.680647e-001
    outer loop
      vertex  0.000000e+000 -1.946128e+001  1.724119e+001
      vertex  8.000000e+000 -2.302186e+001  1.208280e+001
      vertex  8.000000e+000 -1.946128e+001  1.724119e+001
    endloop
  endfacet
  facet normal  0.000000e+000 -6.631227e-001  7.485107e-001
    outer loop
      vertex  0.000000e+000 -1.946128e+001  1.724119e+001
      vertex  8.000000e+000 -1.946128e+001  1.724119e+001
      vertex  0.000000e+000 -1.476968e+001  2.139758e+001
    endloop
  endfacet
  facet normal  0.000000e+000 -6.631227e-001  7.485107e-001
    outer loop
      vertex  0.000000e+000 -1.476968e+001  2.139758e+001
      vertex  8.000000e+000 -1.946128e+001  1.724119e+001
      vertex  8.000000e+000 -1.476968e+001  2.139758e+001
    endloop
  endfacet
  facet normal  0.000000e+000 -4.647231e-001  8.854560e-001
    outer loop
      vertex  0.000000e+000 -1.476968e+001  2.139758e+001
      vertex  8.000000e+000 -1.476968e+001  2.139758e+001
      vertex  0.000000e+000 -9.219728e+000  2.431042e+001
    endloop
  endfacet
  facet normal  0.000000e+000 -4.647231e-001  8.854560e-001
    outer loop
      vertex  0.000000e+000 -9.219728e+000  2.431042e+001
      vertex  8.000000e+000 -1.476968e+001  2.139758e+001
      vertex  8.000000e+000 -9.219728e+000  2.431042e+001
    endloop
  endfacet
  facet normal  0.000000e+000 -2.393155e-001  9.709418e-001
    outer loop
      vertex  0.000000e+000 -9.219728e+000  2.431042e+001
      vertex  8.000000e+000 -9.219728e+000  2.431042e+001
      vertex  0.000000e+000 -3.133954e+000  2.581043e+001
    endloop
  endfacet
  facet normal  0.000000e+000 -2.393155e-001  9.709418e-001
    outer loop
      vertex  0.000000e+000 -3.133954e+000  2.581043e+001
      vertex  8.000000e+000 -9.219728e+000  2.431042e+001
      vertex  8.000000e+000 -3.133954e+000  2.581043e+001
    endloop
  endfacet
  facet normal  0.000000e+000  0.000000e+000  1.000000e+000
    outer loop
      vertex  0.000000e+000 -3.133954e+000  2.581043e+001
      vertex  8.000000e+000 -3.133954e+000  2.581043e+001
      vertex  0.000000e+000  3.133954e+000  2.581043e+001
    endloop
  endfacet
  facet normal  -0.000000e+000  0.000000e+000  1.000000e+000
    outer loop
      vertex  0.000000e+000  3.133954e+000  2.581043e+001
      vertex  8.000000e+000 -3.133954e+000  2.581043e+001
      vertex  8.000000e+000  3.133954e+000  2.581043e+001
    endloop
  endfacet
  facet normal  0.000000e+000  2.393155e-001  9.709418e-001
    outer loop
      vertex  0.000000e+000  3.133954e+000  2.581043e+001
      vertex  8.000000e+000  3.133954e+000  2.581043e+001
      vertex  0.000000e+000  9.219728e+000  2.431042e+001
    endloop
  endfacet
  facet normal  -0.000000e+000  2.393155e-001  9.709418e-001
    outer loop
      vertex  0.000000e+000  9.219728e+000  2.431042e+001
      vertex  8.000000e+000  3.133954e+000  2.581043e+001
      vertex  8.000000e+000  9.219728e+000  2.431042e+001
    endloop
  endfacet
  facet normal  0.000000e+000  4.647231e-001  8.854560e-001
    outer loop
      vertex  0.000000e+000  9.219728e+000  2.431042e+001
      vertex  8.000000e+000  9.219728e+000  2.431042e+001
      vertex  0.000000e+000  1.476968e+001  2.139758e+001
    endloop
  endfacet
  facet normal  -0.000000e+000  4.647231e-001  8.854560e-001
    outer loop
      vertex  0.000000e+000  1.476968e+001  2.139758e+001
      vertex  8.000000e+000  9.219728e+000  2.431042e+001
      vertex  8.000000e+000  1.476968e+001  2.139758e+001
    endloop
  endfacet
  facet normal  0.000000e+000  6.631227e-001  7.485107e-001
    outer loop
      vertex  0.000000e+000  1.476968e+001  2.139758e+001
      vertex  8.000000e+000  1.476968e+001  2.139758e+001
      vertex  0.000000e+000  1.946128e+001  1.724119e+001
    endloop
  endfacet
  facet normal  -0.000000e+000  6.631227e-001  7.485107e-001
    outer loop
      vertex  0.000000e+000  1.946128e+001  1.724119e+001
      vertex  8.000000e+000  1.476968e+001  2.139758e+001
      vertex  8.000000e+000  1.946128e+001  1.724119e+001
    endloop
  endfacet
  facet normal  0.000000e+000  8.229839e-001  5.680647e-001
    outer loop
      vertex  0.000000e+000  1.946128e+001  1.724119e+001
      vertex  8.000000e+000  1.946128e+001  1.724119e+001
      vertex  0.000000e+000  2.302186e+001  1.208280e+001
    endloop
  endfacet
  facet normal  -0.000000e+000  8.229839e-001  5.680647e-001
    outer loop
      vertex  0.000000e+000  2.302186e+001  1.208280e+001
      vertex  8.000000e+000  1.946128e+001  1.724119e+001
      vertex  8.000000e+000  2.302186e+001  1.208280e+001
    endloop
  endfacet
  facet normal  0.000000e+000  9.350162e-001  3.546050e-001
    outer loop
      vertex  0.000000e+000  2.302186e+001  1.208280e+001
      vertex  8.000000e+000  2.302186e+001  1.208280e+001
      vertex  0.000000e+000  2.524449e+001  6.222207e+000
    endloop
  endfacet
  facet normal  -0.000000e+000  9.350162e-001  3.546050e-001
    outer loop
      vertex  0.000000e+000  2.524449e+001  6.222207e+000
      vertex  8.000000e+000  2.302186e+001  1.208280e+001
      vertex  8.000000e+000  2.524449e+001  6.222207e+000
    endloop
  endfacet
  facet normal  0.000000e+000  9.927089e-001  1.205366e-001
    outer loop
      vertex  0.000000e+000  2.524449e+001  6.222207e+000
      vertex  8.000000e+000  2.524449e+001  6.222207e+000
      vertex  0.000000e+000  2.600000e+001  0.000000e+000
    endloop
  endfacet
  facet normal  -0.000000e+000  9.927089e-001  1.205366e-001
    outer loop
      vertex  0.000000e+000  2.600000e+001  0.000000e+000
      vertex  8.000000e+000  2.524449e+001  6.222207e+000
      vertex  8.000000e+000  2.600000e+001  0.000000e+000
    endloop
  endfacet
endsolid CATIA STL
