6.266666666666666060e+03 0.000000000000000000e+00 2.256000000000000000e+03
0.000000000000000000e+00 6.266666666666666060e+03 1.504000000000000000e+03
0.000000000000000000e+00 0.000000000000000000e+00 1.000000000000000000e+00
