\relax 
\catcode `:\active 
\catcode `;\active 
\catcode `!\active 
\catcode `?\active 
\babel@aux{french}{}
\@writefile{toc}{\contentsline {section}{\numberline {I}Introduction}{3}}
\@writefile{toc}{\contentsline {section}{\numberline {II}Plaque carr\IeC {\'e}e}{3}}
\@writefile{toc}{\contentsline {subsection}{\numberline {II-1}Cr\IeC {\'e}ation de la plaque}{3}}
\@writefile{lof}{\contentsline {figure}{\numberline {1}{\ignorespaces Cr\IeC {\'e}ation du plan\relax }}{3}}
\@writefile{lof}{\contentsline {figure}{\numberline {2}{\ignorespaces Positionnement de la cam\IeC {\'e}ra : $5m$ de haut\relax }}{4}}
\@writefile{lof}{\contentsline {figure}{\numberline {3}{\ignorespaces \relax }}{4}}
\@writefile{lof}{\contentsline {figure}{\numberline {4}{\ignorespaces Dimensionnement du capteur et de la plaque\relax }}{5}}
\@writefile{lof}{\contentsline {figure}{\numberline {5}{\ignorespaces Vue de la plaque par la cam\IeC {\'e}ra\relax }}{5}}
\@writefile{lof}{\contentsline {figure}{\numberline {6}{\ignorespaces Mise en place de la texture\relax }}{6}}
\@writefile{toc}{\contentsline {subsection}{\numberline {II-2}Mise en place de la luminosit\IeC {\'e}}{7}}
\@writefile{lof}{\contentsline {figure}{\numberline {7}{\ignorespaces Mise en place de la luminosit\IeC {\'e} ambiante\relax }}{7}}
\@writefile{toc}{\contentsline {subsection}{\numberline {II-3}Choix du moteur de rendu}{8}}
\newlabel{render_engine}{{II-3}{8}}
\@writefile{lof}{\contentsline {figure}{\numberline {8}{\ignorespaces Utilisation de la carte graphique\relax }}{8}}
\@writefile{lof}{\contentsline {figure}{\numberline {9}{\ignorespaces R\IeC {\'e}glages des derniers param\IeC {\`e}tres\relax }}{9}}
\@writefile{toc}{\contentsline {subsection}{\numberline {II-4}R\IeC {\'e}glage du nombre de samples par pixel}{9}}
\@writefile{lof}{\contentsline {figure}{\numberline {10}{\ignorespaces R\IeC {\'e}glage du nombre de samples par pixel\relax }}{9}}
\@writefile{toc}{\contentsline {subsection}{\numberline {II-5}G\IeC {\'e}n\IeC {\'e}ration des images}{10}}
\@writefile{lof}{\contentsline {figure}{\numberline {11}{\ignorespaces G\IeC {\'e}n\IeC {\'e}ration des images\relax }}{10}}
\providecommand*\caption@xref[2]{\@setref\relax\@undefined{#1}}
\newlabel{img_gen}{{11}{10}}
\@writefile{toc}{\contentsline {subsection}{\numberline {II-6}Exploitation des images}{10}}
\newlabel{exploitation_data}{{II-6}{10}}
\@writefile{lof}{\contentsline {figure}{\numberline {12}{\ignorespaces Comparaison de deux images\relax }}{11}}
\newlabel{comp}{{12}{11}}
\newlabel{eevee}{{13a}{11}}
\newlabel{sub@eevee}{{a}{11}}
\newlabel{cycles}{{13b}{11}}
\newlabel{sub@cycles}{{b}{11}}
\@writefile{lof}{\contentsline {figure}{\numberline {13}{\ignorespaces Surface pour chaque moteur de rendu\relax }}{11}}
\@writefile{toc}{\contentsline {subsection}{\numberline {II-7}Conclusion}{11}}
\newlabel{conc_plaque}{{II-7}{11}}
\@writefile{toc}{\contentsline {section}{\numberline {III}Pi\IeC {\`e}ce avec angle droit}{12}}
\@writefile{toc}{\contentsline {subsection}{\numberline {III-1}Mise en place de la sc\IeC {\`e}ne}{12}}
\@writefile{lof}{\contentsline {figure}{\numberline {14}{\ignorespaces Vue de la sc\IeC {\`e}ne\relax }}{12}}
\newlabel{maquette}{{14}{12}}
\@writefile{toc}{\contentsline {subsection}{\numberline {III-2}G\IeC {\'e}n\IeC {\'e}ration des images}{12}}
\@writefile{lof}{\contentsline {figure}{\numberline {15}{\ignorespaces G\IeC {\'e}n\IeC {\'e}ration des images\relax }}{13}}
\newlabel{img_gen_maquette}{{15}{13}}
\@writefile{toc}{\contentsline {subsection}{\numberline {III-3}Utilisation de \textit  {EikoTwin}}{13}}
\@writefile{lof}{\contentsline {figure}{\numberline {16}{\ignorespaces Choix du maillage\relax }}{13}}
\@writefile{lof}{\contentsline {figure}{\numberline {17}{\ignorespaces Positionnement des points\relax }}{14}}
\newlabel{pre-etalonnage}{{17}{14}}
\@writefile{lof}{\contentsline {figure}{\numberline {18}{\ignorespaces G\IeC {\'e}n\IeC {\'e}ration de la commande SQL\relax }}{14}}
\newlabel{gen_sql}{{18}{14}}
\@writefile{lof}{\contentsline {figure}{\numberline {19}{\ignorespaces Copie et modification du fichier original\relax }}{14}}
\newlabel{gen_ekt}{{19}{14}}
\@writefile{toc}{\contentsline {subsection}{\numberline {III-4}Exploitation des r\IeC {\'e}sultats}{15}}
\@writefile{lof}{\contentsline {figure}{\numberline {20}{\ignorespaces R\IeC {\'e}cup\IeC {\'e}ration du r\IeC {\'e}sidu max\relax }}{15}}
\newlabel{res_max}{{20}{15}}
\@writefile{lof}{\contentsline {figure}{\numberline {21}{\ignorespaces R\IeC {\'e}sidu max en fonction du sampling\relax }}{15}}
\newlabel{view_res_max}{{21}{15}}
\@writefile{toc}{\contentsline {section}{\numberline {IV}Bilan}{16}}
\@writefile{lof}{\contentsline {figure}{\numberline {22}{\ignorespaces Mat\IeC {\'e}riau brut \IeC {\`a} utiliser\relax }}{16}}
\newlabel{mat}{{22}{16}}
\newlabel{LastPage}{{}{16}}
\xdef\lastpage@lastpage{16}
\gdef\lastpage@lastpageHy{}
